*** Life<ConwayCell> 27x49 ***

Generation = 0, Population = 376.
*...*.*...*..*....*......***...*.*..*.*.......**.
*.*......**.*...***....*.**.*..*...**...****.*..*
..**.....*..*......*...*.*....*...**..**...*..*..
*.*...*..**..*..**.*.***...*.*.**....***.....*..*
...*......*..*...............**........*...*.*.*.
*.***.*.*....*.**.*..*.......*.*.*..**...*.*...*.
*..**...****.*...*....*....*...........*....*....
.....*..........***..*..............*............
*..*..*..*......*..**.*...*..*..*..*............*
*.**..*....*......*..*.**...**....*.........*....
**..*..........*..**..**......*.*.**.*...*...*.*.
*.*.*........**.......*..........**......*..*.*.*
..*.*.....*.**..**..**.......**..*.**.**.........
...*.*..*.*......*.*...*.*.....*.*.*....*...*.*..
.*......*.*...**...**...*..***.......***.........
.*.***.**....**......*......**.....*.**..**..*...
.....*.....*..*...*........*.*.*..*.......***....
*..................*....*....**...*..*..**.......
.....*..........*.....*...*.....***..****.*.*...*
*.*...**.........*...*...****.*.***....**.*.*..**
.*...*....*.*...*....*.........*..*........*.....
*....*..**.....*.**.*.......*......*.....*.***..*
.*..***.*..*...*....*........***............*...*
..*...*.....*.*.....*..........*........*...*.***
...*.......**.....*..*..**.*.....*.*..*.......*.*
*........***........*...*.....*...*..*..........*
..*...****.*....*...**..*.......*....*.**...***.*

*** Life<ConwayCell> 12x23 ***

Generation = 0, Population = 104.
......*...*..**.....*..
.*.***.**..***.........
..***.**...*......*.***
....*...*..****..*..*..
.*....*...**...*.....**
*.****...*..*.*.......*
.*..**.*..**.**.*.***..
*.*..**..****.......*.*
*....**...***.*.....**.
....*.......*.*..*...**
..*..*****.*...*.******
.***......*......*.....

Generation = 5, Population = 94.
.....**.....****....*..
...**..*....*****.****.
....*.**....*....*.*.*.
.*..**.......**..**....
.*..*.......**.**....*.
*..*........*.......*.*
*.**..*.*....*.*..**...
*..*....*.....***.**...
.*.......***...**......
.....***.*..*..*..**.**
.*****....*.*...*.**.*.
.****......*...........

Generation = 10, Population = 81.
.....**.......**.******
.....***.....***.*.*..*
........*...*......*..*
.......*...*...**....*.
**.........*..**.......
...........****..*...*.
...............**.***..
.....**........**...***
....**......**..***....
....*..*...***...*.**.*
....*..**.*.**...*.*.**
.....*.*..**...........

*** Life<ConwayCell> 12x23 ***

Generation = 0, Population = 64.
..*..........*.........
.*.*...*.....*......*..
....*.**.**..**........
.......*............*..
*...............*..*...
...*......**..*.*...*..
.......*.**............
.**.....****.*..*.**...
....*......*..**.*.*...
.*..**.*........*....*.
*..*..*.**...****......
*............*.**...*..

Generation = 5, Population = 53.
.....***.....*.........
..*.*.**......**.......
...**.***...*..*.......
....***....***.....*...
...........**.*...**...
.......*...*......*.*..
...........*.......*...
.......*******.........
.............*...*.*...
......*........*.......
..............*........
......*.*..***.........

*** Life<ConwayCell> 30x37 ***

Generation = 0, Population = 274.
*..............*...........**.*.....*
*......*..***..*...........*.*...*.*.
..*.**.**.*****....*.****...*...*....
....*....*.*..........*...*..........
................****..**..*..........
**....*.............*....*...**....*.
..**...**.....*...***........*....*.*
..........*.*....*.*............**...
*..*.*.*..*.*..**....*.*....*...*.*..
..........*.*......*...........*.*.*.
.*........*....*...*......**.....**.*
**.*.......**..*.*..*..*.*.....*.....
...***.*....*..*.**.*...........*...*
.**.**.....*...**..*..*....*.*..*....
....*.......*.....****.....*...*....*
............*....**...........**.....
.****.*..........*.*...*....*...*....
**........*..........*..........***..
*..*.*..*...*.*.*..*.*..*..***..**..*
..*..*....*...*.*.........*****......
**......*...*....*..*....*.....*.*...
..**.**..*...*....*.........*.*.*....
.*.............*.....*..........*....
......*.*..*...**...*....*..*..****.*
....*..**.........*.......*...*.***.*
*.....*...*....*.....*......*.*....*.
......*..*.*..*.*..***....*......*..*
...*.*.......**...*.*......**........
...................*......***......*.
*...........*..*.....**...*....*.....

*** Life<ConwayCell> 43x46 ***

Generation = 0, Population = 679.
*.**...*..***.*.....*......*....*....*..****.*
....*...*....**.*..*.*.*..**.*...*..**.*..**..
**.*.......****.**.*.****......*...*........*.
*..*..*.*.....**..*.*........*..*.****.*...*.*
.**....**.*...*...*..*.*.*.....*.*.*..........
..****.*........*..*.*....**.***..*...*.*...**
....**.***.*........*.**.*.....*..*****.*.*...
*.**..**..*.*.*...*.*.*...*..*.*..**..****....
*.*.*.**.***..*.***.........*.*....**..*..****
*..*....***.*.*......*......*..*.....*...*.**.
..***.*..*.....*...........*.*.....*.....*.*..
*....***..*.*....*.*.........*.*.....*..**...*
*.**.*.*....*...*...*...*.******....*.***.*..*
.*........**..*........**...........*..*.*....
.**..**.*.**......*..*****.**.***..*....*..*..
**...*..*.*...**..**.....*......*....*...*.***
....*.*....**.**.......**..*....*.*...*...*...
..*.**....*...***....***..*.......*.*..*.*....
..*****..*..***..*.****.**.*....*.*.....**..**
..**....**...*...*.***........**....****..*...
.***.***.*****....*..*..****.......**.*.......
.*.*.***.*...*.*.*.*...*.....*.....*.***....**
..**...*........*.***.*..***..****.**.......**
*......**.........**.*...*.*.*....*.....**..*.
*..**.*..*..***......*.....*..*....**...*.*...
**.*......*.....*****.*.**.**........*.*....*.
...........*.......*.*....*..**.*......*.....*
.*....*.....**...*...*.....*..*.*.**.......*..
*.*.*....*...........**.*.**..*.*.....*....***
.*.......*.*.**....**.*..*.......*.***........
...........**....***.......*..*....*.*...*..*.
*.**..*...*.*.....**.*.**..*.*.....**.*....*.*
...*.***....*..*.**.**...*...*.*....*.*.....*.
.*..*...*.****..**.....*......*......**..*...*
.........***.****......*...***.......*.*.**..*
.*....***.....*...*..**....*....**...**...**..
..*.*.*.*.*.*....*.....*.*..*.*.*.........**..
......*..*....*......**...*..*.......*..*.....
**....***.*..**.*.........*.*.**......*.*.*.**
...*.*..*..*..*...**.******...**.****.....*.*.
.*...........*........*.*****.*..*...***....**
*.*.***...*...*.....*.....**.*.*.*.........***
.*.*..**.*...*.**...*..........*.*..*....*....

Generation = 1, Population = 670.
...*.......**.**....*.....***.......***.**.**.
*...*.....*.....****.*.**.***...*...***.*.....
*****..*....*...**.*.*.**...*.*.**........*.*.
*..*....**.**...*.*.*.........****..........*.
.*...*..**....*..**..**...*.**.*.*...***.....*
.**..*....*........*.*.*.**....*.*....*..*....
.*.......***........*.**.*.***.***..*.........
..*.........**.*..*...**.....*.*............*.
*.*.***.....*.*..***.*.....**.**..****.*.....*
......*......**.**.........**.*....*....**...*
.****.*......*...............*......*....*.*..
.......**..*....*.........*....*....***.....*.
*.*.**.*..*.**.........***.***.*....*.*...*...
*..***.*.**.*........*..........*..****..**...
..*..***......**..**..*..**....**...*...**.*..
***.*.....*.****..**.....*.**...*........*.**.
.*.**.*..***...........****........*.**.*****.
..*.......*.....*.........**......*....*.**...
.*....*.***.*....*.*....***....*.*..*....**...
.................*.....*...*...*....*.****....
.*...*.....*.*..**...**.***...*....*..........
.*...*...*.*.**.**...***....*.***.....**....**
.****...........*....**.**.*.*****.******..*..
.**.*.***....*...**..**..*.*.*..***.....**.***
*.***..***...*.......**.**.*.*.....**..**..*..
*****.....****...***..*..*.**.**....*.***.....
***........**...*..*.**..**..**..*....*.....*.
.*..........*........*...*.**.*.*..........*.*
*.*.......*...*.......**.***....*....*.....**.
.*.........*.*.....**.**.*.*...*..**.**....*.*
.**..............*...****.*.*.........*.....*.
..******....**..*....**.*.*..*.....*..*....*.*
.*.*.***.**.........**.*....**.....**.**....**
....*****.........*...*.*.....*.....*..****.**
................*......*...***......*..***.**.
.....**.*...*.*.**....***.**...***...**.....*.
......*.*....*.........*..****.***...**..***..
.*....*...**..**......*..**.*..........*..*.*.
.....**.*.*..**.....*...*.*....**.****.*....**
***...*.**..*.**.....**.....*....****....*....
.***..*......**....**.*.....*....*.****.......
*.******.....***.....*.......*.*.**..**....*.*
.****.**......**..............*.............*.

Generation = 2, Population = 621.
...........*...******....**.*.......*.*.**....
*...*.......**.....*.*.**.*....***..*.*.*.*.*.
*.*.*...***.*..*.....*.***..*.*......*.....*..
*..*...*.*****.**...*..*...**.....*...*....***
**..*...*..*.....**..**..***.*...**..***......
***.....*..*......**...*.*.....*.**...**......
.*.......****......**....*.***.*.*............
..**.*....*.***..**.*..**.*......**..*........
.*.*.**.....*......*..*....*...*..***...*...**
......**....*.****.........*..**..*..*..***.*.
..**.**.....******.........****....**...***.*.
.......**..*.*..........****.*.....**.*...**..
.*...*.*..*.**..........*****.***......*.***..
..*....*.**.*.*.......**...**.*.*..*..***..*..
*.*....****.*..*..***....***...***.**...*..**.
*...*..*.**.**.*..**...*...*...**...**.*......
*...**...*..****........*...*.........**....*.
.***.*.**..............*...*......******......
.........***....***.....**......*..*.**.......
.........****....*....**...*..***..***.****...
..........*..***..*..*..****.**.*....*........
**.*.*....*..**.....*......**....***....*...*.
*...*.***...*****.*.*...**.*.......***...***..
*.....*..*.......*..*......*.*...........*.*..
*.....*..***.**....**...**.*.*.********...**..
....*...***..*...***.......*...*...**.*.*.....
..........*......*.*.**.**......*....**.....*.
............**......**.*....*.*.**.........*.*
*.*........***......*..*.*......**..***...**.*
*...................*.......*.......***....*.*
.*..***......*............*.*.....***.**...*.*
.......**...............*....*.....**.*....*.*
.........*..........*...**..***....**.*..**...
....*...**...........**.*..*..*.....*.....*...
....*...*......**........********...*.........
.....**......*.***....*.**.....*.*..*.......*.
......*..*.***..*............***.*...*.*.**.*.
......*...***..*.......**...***...**...****.**
*.*..**.*.*.*.........**..*.....*....**.*..***
*..*..*.**..*..*...*..**...*..................
........*...*.......*.*.....**........*.......
*...................**.......**.****..*.....*.
.*.....*.....*.*..............*.............*.

Generation = 3, Population = 582.
............*...*****...****....*.......**....
.*.*.....**.****.*.*.*.*..*..*.**...*.*.*.**..
*...*...*......**....*...**.**.***...***..*..*
*.***..*.....*****..*..*.........**....*...**.
...*...**.......***.****.*.*....*..*.*......*.
..*.....*........*...**..*...*.......*.*......
*..*.....*.......*..*..*.*.**.*.......*.......
.*.*.**..**.......*.**.****...*..*..*.........
...*.*.*....*......*...*..**..***...**..*..***
...*...*...**....**.......**...*..*..*.*..*.*.
.....*..*..*.....*.......*.....*..*....**...*.
..*.**.**..*...**.......*..........***.*....*.
.......*..*...*...............*.*..***...*..*.
..*....*....*.*....*...*......*...***.*.......
...*..**....*..*..*.*.***.....*..***....*..**.
*..*****.......**.*.*...**.**..*.*.***.**..**.
*.*..*.*.****..*.......**..**...........*.....
.***.**.*..*******.....*.*........**..........
..*.........*...***...*.*.*.....**.......*....
............****......**...****.**.*...***....
...............*.....*****...**.*....***......
**..****.*.*....**..**.......*...***.*...***..
*...*.****..*..***..**.....*.......**...**.**.
**....*..*.*....***.**.....*..*.**....*..*..*.
.....*.*...****..*..*......*...****...**.***..
........*...***..*...*.*....*.**...........*..
..........****...*.*.****.......**..****....*.
.............*.....*...*.*..........*.....**.*
.*.........*.*.....**.*.*....*.***..*.*...**.*
*....*.......*.............*.....**........*.*
.....***...................***....*....*..**.*
.....****...............*..*..*.......*....*..
.......*.*...........*..**..*.*..........***..
........**...........*.**...........*....**...
....*..***....**.*...**....***..*..***........
.....***.....*...*......**.*.....*..**.....*..
......**.....*...*.......*..*..*.*.**.**..*.*.
......*...............***...*...***.**........
.*...**.*.*.**.............***........*.*.**.*
.*...**.*...**.............**........***....*.
.......***.........**.**....***..**...........
....................**......*.**.**...........
.............................***.**...........

Generation = 4, Population = 553.
...........**.****.**...****...**......****...
.........*.****....*.**......*........*.*.**..
*...*...**..*.....*..*..******.*..*..*..***...
.**.*..*......*...***..*.*.**..*..*.**.*...***
.*..*..**.....*...***..*..*......**.*......**.
..**...***.........*.....*.*.*......**........
.*.**...***......****..*...**.*......**.......
...*.**.***.......*.**.*....*.*.*...*.......*.
...*.*.**.*.*....*.**.**......*.**.****....***
.......**..**....**......*.*.....*.***.*.*....
...*.*..*.**.....**......**.......*..*.**...**
....**.*****...**..............*..*..*.*...***
...*...*...*.**................*..............
.......**..*..**...*..***....**............**.
..**....*....******.***..*...*****....*.*..**.
.***......*.*.****...**..*****..**.**..***.**.
*........**............*...**..........**.....
...*******....*...*...*..***.....**...........
.***..............*...*.******.**..*.....*....
............****.*........***.*...*....*.*....
.....**.....**.*....*...*.......*..*.*.*......
**..*....**......*.....**...***..***.*.*.*.**.
....*....*.**..*......*.....*...*..***..*...*.
**.......*.*..*...*.......***......*.**.....*.
......***.**..**...**.*....***....*...****.**.
..........*.....**...*.**.....*...*.....*..**.
...........*.........*.........**...***...*.*.
..........*..**....*.....*.....*...**..*..*..*
.............**....**..**.......****.*.......*
.....*......*..............*.**...**.........*
....*...*.................**.*...**.......**..
.....*..................****..*..........*....
.........*............*..*...*...........*.*..
..........*.........**.***.*.......***...*.*..
.....*...*....*.*....**..****......*......*...
.....*.......*...**.....**.*.*...*.........*..
.........................****.........*....*..
............**.........**.......***.*....**.*.
.........*.***.........*.....*...*..*......**.
.....*.....***................*......***...**.
......****.........**.*.......*****...*.......
........*..........****.....*......*..........
.............................*.*.**...........

Generation = 5, Population = 522.
..........**..***.****...**............**.**..
........**....*.**.*.***.....*.**.....*....*..
.*.*....*****.*...*..*.***...*.....***..*.....
***.**.*.*...*...*...***.....**.*.*.***.**...*
.*..*.*..*...............*.......**...*....*.*
.*........*......*......*..*.*.....**.*.......
.....**..........*...**.*.**..**......*.......
...*.**................**..**.*.**.*.......***
.....*....*.*....*..*.***....*..**....*....***
............*...*.......**......**.....*...*..
.....*............*......**......**..*.*...*.*
...*.*.*......****.....................**..*.*
....*......*.*..*......*.......*.............*
..**...**........****.***....*.............**.
.*.*...***.**.....***....*.*.....**.....**...*
.*.*......**......*.*..***.......**...*..****.
.*...***..**.**.**...*.**....*..*..*...*.*....
.*.********...........*......*..***.....*.....
..**.****......*.**....**....****..*....*.....
..*.........*..**......**.....*.*****.*.......
.....*.....**..*.......***....**...*...*..*...
....*....**..**.*......**...**.***...*.*...**.
........**.**..........*.........*.....**...**
.......*.*...**....*.*....*.......**.....*..**
.......**..*..**********..*..*....**.**.***..*
.......*.**....**....*.*....****.*.*....*....*
..........**........*.*.*.....***...****.**.**
............***....*....*......*...........***
............*.*....**...*.....****..........**
.............*............**.**.*...*.......*.
....**.......................*...***......*...
........................*..*.**..........*.*..
.....................**....**.......*...**....
.........**.........*..*...*.......**....*.*..
.................*..***...........**......**..
.................*......*....*............**..
............**.........*...**...*.*........**.
...........*.*.........******...****.*....*.*.
..........*...*........**.......*****.*......*
......**.*.*.*...............**...*..***...**.
......****..*......*..*......******..***......
........**.........*..*......*.....*..........
....................**............*...........

Generation = 6, Population = 480.
.........**...*.*.**.*.................*..**..
........*...*.*.*......*..*...*.....***.****..
**.**..*...**.***.*.........**..**.*....**....
*...****...***.......*.*.*...**...*...*.**..*.
...**.*.***...........***...***..**...*.....*.
......*................**..**.*...**..**......
....***...............*.*.*...***.****......*.
..........................***.*..**........*.*
....***....*..........*.....**............*..*
...........*.....*........*............*..**.*
....*.*.................***.....***....*..**..
.....**.......****....................***....*
..*.*.***.....*....*..***..................*.*
..***..*.***.....*..*****...................**
.*.**..*.*.**.........*..**......**.....**...*
**..*........*....*.****.**.....*..*...*...**.
**.*........*....*...*...*......*..*...*.*.*..
.*.*......**..**..*...*.....**....**...***....
.*.............*.*....*.*....*......*..*......
..****.*...**.**.*....*..........*..*..*......
..........***.........*..*.........*.*.*...*..
........**...***......*..*...*.*.**....*...***
...........**..*......***........*....***.....
.......*.*.*.**.**.*.*.*.........*.**.*...**..
......**.....*...***...*...***...*.....**.*..*
.......*.*....*...*.....*...*....*.*.......*.*
.........*******....***.*...........*******...
............*.*....*.*..**.......*...**...*...
............*.*....**....*...*...*............
.............*..............**.....*.......***
..........................**...*.***......**..
...........................*.**...**....**....
.....................***..**.*.....**...**....
....................*..*...**.....*.*...**.*..
....................****..........***....*..*.
.....................***....*....***..........
............**.........*.....*..*.**........*.
...........*.**.......*..**.*..*.....*......**
..........**.**........*..****.**......*.....*
......*..*.***.........*.....*..............*.
......*.....*...............*..*******.*......
.........*.........*..*......*.**..*..*.......
....................**........................

Generation = 7, Population = 486.
.........*...*...*...................****..*..
........***.*.*.*.**.........*......***....*..
**.**..**.....*.**....*.*...*..*.****.*....*..
***......*...***.......*.......**..*....**....
...**...*****............*.*...*.*...**.*.....
...*..*..*.................**...*.....**......
.....**.................*.*...*.*...***.....*.
.......................*.**.*.*.***.*......*.*
.....*....................*.**............*..*
....*.*...................**.....*.......*....
......*........*.*.......**......*.......***..
...**.........***................*....***.**..
..*.*...***...*..**.*...*..............*.....*
.*.......*.**.......*........................*
**...*...*.**......*......*......**.....*..*.*
....*......*.*......*..*........*..*...*.*.**.
...**......****..****..****......*.**.**.*.**.
.*.........*..**.**..***....**....***.**.**...
.*........*.**...**..**.....**....*.*.**......
..***.....*.****.....**............***.**.....
...**...***.....*....***........**.**..**..*..
.........*...***.....**..*......***........**.
.........*.*.........*..*........*.*.**.*.*...
......***.**.*****.**.......*...**...**...**..
......**..*.**.**..**.***..***..**.**..*.**...
......**.*.*...*.**.***.*..***....*.**.....**.
........*****..*...****.*.........*.*..*****..
..........*........*..****..........*...*.*...
............*.*....**...**..**....*........**.
.............*............*****.**.*......***.
..........................**.....*..*....***..
......................*......**..*......*.....
.....................***..*..**.....*..*......
....................*...*.***.....*..*........
....................*...*..**.......*...***...
....................*...*.....................
............***......*.**..***..*..**.......**
..........**..........*****....*.*..........**
......................*****..*.**............*
..............*..............*....***.*.......
..........****..............**.*.******.......
....................**........**...*.**.......
....................**........................

Generation = 8, Population = 437.
........***..*...**.................*..*......
.......*..*...*.*.*...............*.......***.
*..*...*..*.....***....*......**.**...**..*...
*......*...******......**.....**...*..*.**....
.*.**...*..****...........***..*.*...**.**....
...*..****.*.............*.**...**..*.........
.....**.................*.*.*...*..**.**....*.
.....**.................*.*.*.*.**.**......*.*
.....*......................**..*.*.......*.*.
......*.....................*............*.*..
...**.........**.........***....***....*...*..
...***...*....*...*......*............***..**.
..*.*...****.**.**.*..................***...*.
***.........**....*.*........................*
**...........*.....**............**.....*.**.*
...***........*.....*..*..*.....*..**.**.*...*
...**.....**...***..*....*.......*.......*..*.
..*.......*....*.........*.***...*.......***..
.*.*......*......**.*.......**....*......*....
..*.*.....*.*.****..*............*............
..*.*...*.***...*...*..*........*....****..**.
..............**....*...*............**.*****.
.......*.*.*.........**.............****.**.*.
......*.*....*...***..*.*..***.....*....*..*..
.....*.......*........*.*.......*..*.....*..*.
......*......*.*.**.....**.*.*....*..***....*.
.......**...*...*...........*.......*..**...*.
..........*.**....*...*................**...*.
.............*.....**.........*..***.....*..*.
.............*................*.**.*.....*....
..........................*....*.*.......*..*.
.....................***..*****.........***...
.....................***.**...*...............
....................*.*.*.*........***..**....
...................***.**.*.*............*....
.............*......**..**...*.....**....*....
...........***.......*....***...*...........**
...........***.......*.......*.*.*............
......................*...*....*****........**
...........***.........***...*.*......*.......
...........***..............**.***.....*......
...........**.......**.......****..*..*.......
....................**........................

Generation = 9, Population = 459.
........***......**........................*..
.......*..**...**..*.............***..**..**..
......***.*.*.....*....**.....******..***.*...
*****..**.*.....*......**..*.*...*........*...
..***.*..*..............***.****.**.***.**....
..**..*.****.*...........*...*.*.****...*.....
....*...*...............*.*.*...............*.
....*.......................*...*...**.....*.*
.....*......................*..**.**......*.*.
....**....................*.**..*.*........**.
...*..........**.........***.....*....**...*..
..*..*..**......***......*.......*.........**.
..*.**..****..**.*.*..................*.*..***
*.**.....***.....**.*...................**.*.*
*..**.......***.....**...........***...****..*
..**.*........***...**..........*..*...*.*.*.*
..*..*....**..***.......**.**...***......*.**.
..*.*....**....*..**......**.*...**.....**.*..
.*.*.....**...*..***.......*.*...**......*....
.**.*.....*.**.*..*.**...........*....***.....
.........**.*....*.***...............*..*...*.
........**..*..*....*.**.....................*
.......**.....*...*****.....*.......*.......*.
......***...*.....*...*.....*......*.****..**.
.....***....**..*..*....*.**.*....***.***..**.
......**....***.**.....***..*......*****...***
.......*...**.*.*.*.........*........*.....***
...........***.....*..............**...*.*.***
.............**....*...........***.*.....*....
..............................*....*....***...
......................*...*.*..*.**...........
.....................*.**...****........***...
....................*.......*.*.....*.....*...
...................*......*.........*...**....
...................*......**.........*...**...
.............*.....*...**....*................
...........*..*......**..******.*.............
...........*.*.......**...*.*.**..............
......................****.....*.**...........
...........*.*.........***..**................
..........*.............*...*....*....**......
...........*.*......**......**...*............
....................**........**..............

Generation = 10, Population = 411.
........****....***...............*.......**..
......*.........*..*...........*...*..*.****..
.***..*...*....***.....**.....**...*..*.*.*...
.*..*.....**..............**........*.....*...
......*....*...........*..**...*....**.***....
..*.....*.*....................*.*..*..***....
....**.**.*..............*.***..***..*......*.
....**......................**.***.**......*.*
.....*......................*..**.***.....*..*
....**...................**.**.**.**......*.*.
...*.*.........***.......*.**...***.......*...
..*..*..*........**......*............*...*..*
..*.**.....*...*...*...................***...*
..*..*..*......****.**............*........*.*
..........*****.**...............***...*...*.*
.**..*.....**...*...**..........*..*...*...*.*
.**..*...***.....*.**....*.**...*..*.....*.*..
.**.*..............*.....*...*.....*....**.**.
.*..*........*****........**....*........**...
.***........***.*....*...........**...****....
........*.*.*.*.*.*...................*.*.....
.......*..**.*.........*....................**
......*......*....*.*...............****...***
.....*......*....**...**....**....*.....*....*
.....*.....*..***.*.....*.**.*....*.......*...
.....*..*.....*.*.*....****.**....*.....*.*...
......**......*.*.*.....*.........*..*.**.....
...........*...*..**............*****...*..*.*
.............**................***.**......**.
..............................*....*....***...
......................**...**..**.*...........
.....................***....*..**........**...
....................*......**.**..........*...
...................**.....*.........**..*.....
..................***....***............***...
....................*.***....**...............
.............**.....**..***...................
............*...............*....*............
.....................*....***..**.............
......................*.....**..***...........
..........**...........***.*..................
....................**......***.*.............
....................**.......**...............

Generation = 11, Population = 417.
.........**.....***........................*..
..*....*...*..................**..**....*.....
.***.*....**...***............**...***..*.....
.*.*.*....**....*......*****..**...**.*...*...
.........*.*..............**....*..*****..*...
.....**.*.**..................**.****..*.*....
...******..................*.*.......*..*...*.
.....................................*.....*.*
......*...................................*..*
.....**.........*........**..**.....*....**...
...*.**.........***.....**.***.**.**.....**...
..*..**........*.**.......*......*.....**.*...
.**.***........*...**..................****..*
...***....*..*....***............***...*..*..*
.**.......*..**...**.............*.*......**.*
.**......*.....**.****..........*..**...*..*..
*...**....***.....**.*....*.*.....***....*.*..
*...**....*...**.*.**....*..............*..**.
*...*.......*...**........*......**........*..
.***.......**....................*....*...*...
..*......**...*..*....................*.**....
.......*.***.**..*.*.......................*.*
......*....*.*...***..**.............***...*..
.....**.....*****.*....*...***.....*.***...*.*
....***......**.*.**..*...*...*..***..........
.....*.*.....**.*.**...*..*.**...***...**.....
......**......*.*.*....**...........*..**.....
.............*.*.***...........*.....*.**..*..
..............*................*........*..**.
..............................*....**....***..
.....................*.*...****.**......*.....
.....................*.*.........*.......**...
...................**.*....******.........*...
..................*..*...*..*...........*.*...
..................*....*****............**....
......................**...*.............*....
.............*......***.**...*................
.............*......**......*...*.............
...............................*..*...........
......................****...*.***............
.....................****..*..***.............
....................***.*...*.**..............
....................**......*.**..............

Generation = 12, Population = 397.
..........*......*............................
.***.....*.*...*..*...........**..**..........
.*.*..*.....*..***......***..*..*....*.*.*....
.*.*.....*..*..***......**.*..*.*.*......*....
....***..*..*...........*..*....**.....****...
........*.**..............***.*****....*.*....
....*...**....................*...**.**.*...*.
....*......................................*.*
.....**..................................****.
....*..*........*.......****.***...*.......*..
.......*.......*..*.....*..***.*****.......*..
.**....*.......*.........****...***....*...*..
.**...........*.**..*............*....*...**..
......*......*...................*.*...*.....*
.*..*....**..***.....*..........**.......***..
*.**.....*..****.....*...........*.......*.*..
*..***...***..*......*............*.*...**.*..
**.*......*.**.*.*.**....***.....*.........**.
*.*.**......**.****..............**.......***.
.***......****..**...............**....*.**...
.***....**....*...*....................*.**...
........**.*.**.**.*.................*..*.*.*.
.....***...*.......*..**....*.......**.*..**..
....*..*........*......*...***.....*.*.*....*.
....*..*........*.....**..*...*..*......*.....
....*..*........*.....****.*.*...*..*..**.....
......**........*......**.........***....*....
.............*.*****..................*..*.**.
..............*...*...........**....*..**...*.
............................*.*.*.......*****.
............................*******.....*..*..
.....................*.*.........*.......**...
...................**.*....******.........**..
..................*.****.*....**........*.*...
.......................*.*.**...........*.*...
...........................**...........**....
....................*...*...*.................
....................*.*.......................
.....................****.....**..............
.....................*...*.......*............
....................*.......*....*............
........................*..**.................
....................*.*.......**..............

Generation = 13, Population = 368.
..*.......*...................................
.*.*......**...*..*......*....**..............
**.**.....***.*...*.....*.*..*..*.**....*.....
...*..*....***.*.*.....*...**...*.....**......
....**..**..*...*.......*....**........*..*...
....*..**.**..............*****....*......*...
........***................*.**.*.**..***...*.
....*....................................*...*
....***..................**...*...............
.....*.*................****.*.*.*.*..........
......***......**.......*..........*......***.
.**...........**.*.......**..*.*...*.......**.
.**...........***.........**..........**..***.
.**..........*..*................*.......*..*.
.***.....**....*................**......**.**.
*.*..*..*...*.......***.........***........**.
*........*......*....*....*......**.....**.*..
*........**....*.*.**.....*......*.*.....*....
*...*.....*....*...*......*.....*........*..*.
*........***.....................**...........
.*.*....*.....*...*...................**......
..*...*..*..****.*.*................**.**.....
.....***..*.*..****...**...***.......*.****.*.
....*..**...............*..***.......*.**..*..
...******......***.......**...*...*.*.*.*.....
.....*.**......***.......**......*..*..***....
......**..........*...*..*........****.*.**...
..............***.**................**.*.****.
..............***.**.........***.......*.....*
............................*.............*.*.
............................*.*...*.....*...*.
....................***....*......*......*....
...................*....*...**..*..........*..
....................*..*........*.........*...
.....................*.*...***.........**.*...
........................*.*..*..........**....
.....................*.....**.................
....................*.*.*.....................
....................*..**.....................
....................**.**.......*.............
...........................**.................
.....................*.....***................
..............................................

Generation = 14, Population = 358.
..*.......**..................................
**.**....*..*............*....**..............
**.**.........*****.....*******.**.....*......
..**.....*....****.....***.**.**.*....***.....
...****.**...*..*.........*...**......**......
....**.*...*..............**......**..*.**.*..
.......**.**..............**..**..**...***....
....*....*................*..***.......**.....
....*.*.................*..*..*...............
....*...*...............*..*..*...*........*..
......***.....***.......*..**...*..**.....*.*.
.**....*.........*.......***.................*
*..*.........*...*.......***..............*..*
*...............*...............**.....*.*...*
*..*.....*...........*..................**...*
*.**....*.*.........***.......................
*.......***.....*..*..*............*....**.**.
**.......**....*..***....***....**.......*....
**..............*.***...........*.............
**.......***.....................*............
.**.....*..**.**..*..................****.....
..*..**.**.**......*........*.......**........
.....*...*.**..*.**....*...*.*.......*....**..
...*.....*........*....***....*.....**....**..
...*.....*.....*.*......*...**.....**.*.......
...............*..*.....*........*........*...
......***.....*...**.....**.......*....*......
..............*.*.............*......*.*.*.**.
..............*.*.**.........**.......*.**...*
...............*............*..*...........***
.....................*.....***...........*.*..
....................**.....*.....*............
...................*..**....*....*........*...
....................*.***..*.............***..
......................***..***.........**.*...
......................*...*..*.........***....
.....................*.*.*.**.................
....................*.*.*.....................
...................**....*....................
....................*****.....................
....................***....*.*................
...........................*.*................
............................*.................

Generation = 15, Population = 363.
.***......**..................................
*...*.....**...***......**.**.***.............
*............**...*....*.........*....***.....
.*......**...*....*....*.........*......*.....
..*...*****...*.**......*...*****.*..*...*....
...*.......**............*........**..*..**...
....********.............*..**.*..**..*...*...
.....*.****..............**.**.........*.*....
...**....................****.................
......*.*......*.......*****.*.*...*.......*..
......*.*......**.......*...*......*.......**.
.**...***.....**.*......*..................***
*.*.............**.......*.*................**
**........................*..............**.**
*.**.....*..........***.................**....
*.**....*.*.........*.*...................*.*.
*.*.....*..*......*...*...*.............***...
........*.*....**....*....*.....**......***...
..*........*.....**.*.....*.....*.............
.........****..*.**...................**......
*.*....**....*......................****......
.**..*****....****.*........*.......*..*......
....***..*.**....***...*....**........*...**..
....*...**........*....*.*....*....*..*...**..
................***..........*.....**.....**..
.......**.....******....*.........**..........
.......*......*..***.....*............*.*.**..
.......*.....**..............**........*.**.*.
..............*.**...........***......****...*
...............*...........*............**.*.*
....................**.....*.*............**..
....................**.....*.*............*...
...................*....*..**............***..
...........................*.*..........*..*..
........................****.*.........*...*..
.....................*...**..*.........*.*....
.....................*.******...........*.....
...................**.*****...................
...................*.....*....................
.......................**.....................
....................*.........................
.....................*.....*.*................
............................*.................

Generation = 16, Population = 339.
.***......**....*..............*..............
*.**......***.****......*......**......*......
**.......**.*****.*....*.......*.*.....**.....
.*........*..*.*..*....**....***.**...*.**....
..*....*..****...*......*....****.**....***...
...**.......*...........**......*...***..**...
....**......*...........**.****...**..***.*...
...*.......*............*.....*...............
....***.......................*...............
.....*.........**......*.....*.............**.
.....**.**................***.............*..*
.**...*.*.....*..*......**....................
*.*....*.......***.......**...............*...
*..*.................*....*.............******
*..*.....*..........*.*.................*...**
*.......*.*........**.**..................**..
..**...**.**..........*.................*.....
.*.......***....*.**.*...***....**......*.*...
............*..*..**............**.....***....
.*......*****...****...................*......
..*........***......................*...*.....
.****....**.******.*........**......*..*......
...**..........*...*....*...**.......***..**..
....*...***.....*.......*...*.*....***...*..*.
.......*.*..............*...........*.....**..
.......**.....*...................***....*....
......**...........*...................**.**..
.............**.*............*.*............*.
.............**.*...........**.*......*....*.*
...............**............*.............*..
....................**....**...............**.
...................*.*....**.*................
....................*.....**.*...........*.*..
........................*....*..........**.**.
........................*..*.**........*..*...
......................**.....*.........*......
.....................*......*...........*.....
...................****.......................
...................**.*...*...................
........................*.....................
..............................................
............................*.................
............................*.................

Generation = 17, Population = 319.
.*.*......*.*...**.............**.............
*..*..........................**.......**.....
*........*........*....*.........**...*..*....
***............*..*....**....*.....*......*...
..**......*..**..............*....***.*.......
...***.................*..*.....*...***....*..
.....*.....**..........*..*.****...**.***.*...
...*..*.................**..*.**.......*......
....***......................**...............
.......*...................***.............**.
.....**.**.....**.......*****..............**.
.**..**.**.....*.*......*.....................
*.**...*.......***......*.*...............*.*.
*.**............*....*...**.............*.*..*
**.......*.........**.**................*....*
.***...**.**.......**.**.................*.**.
.**....**.........*...**..*...............**..
..*.....**..*....****.....*.....**............
........*...*..*..........*.....**.....*.*....
.........**.....**.*...................*.*....
........*..........*...................**.....
.*..*.....*....**.*.........**......*..**.....
.....*..*..*.*...**........*..*....*...**.**..
...**...***............***..*......*.....*..*.
.......*..*.......................*......***..
...................................**...**....
......***....***...................*....****..
.............**.............**.........*..*.*.
.............*..**..........**.............*..
..............***..........*.**...........**..
....................**....**...............**.
...................*.*...*................***.
....................*....***.**.........**.**.
.........................***.*..........**.**.
........................*....**........*.***..
......................**.....**........**.....
.......................*......................
...................*..*.......................
...................*..**......................
..............................................
..............................................
..............................................
..............................................

Generation = 18, Population = 294.
..*...........................***.............
***..............*............**.*.....**.....
*.*....................**.....*...*....***....
*.**..........*........**........*..**........
..............*........**.........*...*.......
..**.*.....***.............**..*..*...........
...*.**................*..*.*...*..**...*.....
......*.................**.**.........***.....
....****...................*...*..............
....*..**................*....*............**.
.....*...*.....**.......***..*.............**.
.*****...*....*..*.....**...................*.
*...*.***......*.*......*.*..............*.*..
*..*...........***..*******................***
*.......***........*...**...............*.**.*
...*...*..*.......*.*...*................*.**.
..........**.....*....**..................***.
.**......*.......***.....***....**........*...
........*.**........*...........**............
........**......*.*...................**.*....
..........*....*...*..................*..*....
.........*......*.**........**........*.......
...*.*..*..*....***.....*..*.......**..*..**..
....*..**.**............*.........**........*.
........*.*.............*.........*.*......*..
......*.*.....*...................***.........
.......*.....*.*...................**..*...*..
.......*....*...*...........**..........*...*.
.............*..**.........*................*.
..............****........**.**...........*...
...............*....**....***.................
...................*.*...*..*............*...*
....................*...*..*.**.........*....*
........................*..*...........*......
.......................****............*...**.
......................***....**........****...
.......................*......................
......................*.......................
......................**......................
..............................................
..............................................
..............................................
..............................................

Generation = 19, Population = 292.
..*...........................*.*.............
*.**.........................*...*.....*.*....
*......................**.....*****...**.*....
..**..................*..*.......***.****.....
.*..*.......*.*........**........***.*........
..**.**.....**.........**..**....**...........
..**.**.....*...........***..*.....*....*.....
........................**..*..........**.....
....*...*...............**.**..........*......
....*..**...............**....*............**.
..*..**..*.....**......*..*..................*
.***...*.*....*..*.....*..*...............*.*.
*.....***.....**.**..*....*...............**.*
**.............*.**.***...*..............*...*
........***.....****.....................*...*
........*.........**..*.*................*...*
..*......***.....*.....****..............*..*.
.........*.......***......*.....**........*...
........*.*...............*.....**............
........*..*.......*..................***.....
........*.*....**..*.................**.*.....
.........**....**..*........*........***..*...
....*..**..*....*.**........*.....***......*..
....*..**.**.....*.....***........*.......*.*.
........*.**.....................*..*.........
........**....*...................*..*........
......***....***..................*.*.........
............******..........*..............**.
.............**...........**..*............*..
..............*..*...........*................
..............**....**...*....................
...................*.*...*....................
....................*...****.*..........*.....
...........................**..........**...*.
......................*...*...........**.***..
......................*................*****..
........................*...............**....
......................*.......................
......................**......................
..............................................
..............................................
..............................................
..............................................

*** Life<ConwayCell> 36x27 ***

Generation = 0, Population = 278.
.*....*.**.*..*...*..*.....
....**.*.*.........*....**.
....*.*..*.*...****..*...*.
*.****..*.*..**.*...*....**
....*.*...*.........**...*.
**.**..*......*....*..*....
......**.*..*.....*.*...*..
*...........*........*..***
*...........*..*...*.**..*.
.**..*.*.*.*...*........*..
**.*.*...*.*.*...****....*.
..*....**.*..*...**.......*
....*.*.*.*.*.*...*..**....
.....*..*..*...**..**....*.
**.*.*....*....**.**.*.*..*
*....**...**.*.*..*.**.....
......*..**.........*...*..
***...*.........*......*...
.....**....**..*..*...*...*
*...*...........**......*..
.....*.......*.......*...*.
..**..........***.....*.*..
..*.**...*..*.**.**.*..*..*
*.*..**...**...***......*..
...**.....*...*.....*..**..
.*....**....*...........*..
.....***.*...*.....*..*....
.*..*......*...*..*...*..*.
.*..*........*.......*.....
...*.**.......*......*.....
**.*......*.....**.....*...
*........*....**...**..*..*
*..*.*.*.....*.****......*.
.*..*.*.**.......*....*..*.
.**.*...***..**...*....*..*
...............*..*.....*..

Generation = 1, Population = 313.
.....******................
....*..*.*.....**..**...**.
......**.*....*******......
......**..**..*.*..**...***
*.....**.*...***...***...**
...**..**..........*.......
**....***....*.....***.**..
...........***.....*.****.*
*..........**.......****..*
..*.*.*.*..*..*.*....*..**.
*..**..*.*.*..*.**.*.....*.
.********.*..**.....**.....
.....**.*.*.*****.*.**.....
.....***..**..*.*..........
**...*...**.*.....*..**....
**..***....*..*****..**....
*.....**.***.......***.....
.*....**..**...........*...
*....**........*.......*...
....*.*.....*...**.......*.
...**.........*..*.....***.
..**.*..........**...*****.
..*.***...**.*....*....***.
.**...*..***.*...***....**.
.****..*..*....**......***.
....*..**....*..........*..
.....*.**...*..........*...
....*.*.....*.*......**....
..***.........*......**....
**.*.*................*....
***.*.........*.*...*.*....
*.*.*.........*....*....*..
**..****.*.....*.***....***
**..*.*...*..*.*........***
.***.*.**.*...*..**....***.
.........*....*............

Generation = 2, Population = 256.
.....***.**................
..............*.....*......
.....*...*....*......*....*
.....*...**.............*.*
.....*...**..***..*..*..*.*
**...*...*...*....*...*.**.
......*.*....*....**.*..**.
**.....*...*.*.....*.......
..........*...............*
.*..**.**..*.*..**...*.****
.........*.**.*.**...*..**.
.**.......*.......*..*.....
..**....*.*.*...**.***.....
....*..**.....*.*..**.*....
**.....*.*..***...*..**....
....*..**...*..****........
*.......**..*..*******.....
**......**.*........*.*....
...........*....*.......*..
...**.*........***.....*.*.
..*............*..*.......*
..*...*.........***.......*
....*.*..*.*....*..*......*
......**.*....*.****......*
.*..****..***.*.***....*...
..*.**...*...............*.
....**..*...*.........**...
....*.**.............*.*...
.**..........*.........*...
*....*.........*......**...
....**.........*.....*.*...
..*.*.*.......*.**.**..**..
..*.*.**.......**.**...*..*
..........*....*...*.......
*********.*..***.......*..*
..*.....**..............*..

Generation = 3, Population = 267.
......*....................
.....*..***................
.........**..............*.
....***.*....*.*..........*
....***.*....**.........*.*
.....**.***.**...**.***...*
......***....**...***..***.
.......*....*.....***....*.
**....***.**............*.*
........**.*.*.***....**..*
.**.....**.***.**.*.**.*..*
.***......*.**.*..**.**....
.***...**..*...***....*....
.***...*...**.*.*.....*....
......*..*..*.*...*.***....
**.....*...**.........*....
**........***..*....**.....
**......**.**..*..*.*......
..........*....***.....**..
...*...........*.*......**.
..*..*.........*..*......**
...*.*.........**.**.....**
......*.*.*........*.....**
....*....*..**.....*.......
...**..*.***.*..*..*.......
.......****.**...*....***..
.......**.............***..
...**.**...............**..
.*...**................**..
.*..**........*........**..
...**.*.......**....**.....
....*.**......*..*.**..**..
......**......*........**..
........**........**.......
.********.*...**...........
..*.***.**....*............

Generation = 4, Population = 237.
.........*.................
........*.*................
....*.**..*................
....*.*.*....*............*
........*............*....*
....*.......*....**.***...*
.....*.....*..*.......*****
.........*.***....*.*..*..*
......*...**....****...**.*
*.*..........*.*.*...****.*
.*.*....*.........*.*..*...
*......*..*..*....**...*...
*...*..**.*......**...**...
.*.*..**..***.*.*.....**...
*.....***.*....*......**...
**.................*..*....
..*.....**...*.....***.....
**.......*..*.**.*.***.....
.........***..**.**....***.
..............**.**....*..*
..**..........**..**.......
....***........*****....*..
....**...*.........**....**
...***.*....**....***......
...**..*......*...*....*...
......*.....**........*.*..
.........................*.
....*...*................*.
..**...*..............*..*.
..**..........**......***..
...*..**.....***...****....
...**........**....******..
.....**.............*..**..
..***....*....**...........
.**.......*...**...........
.**.....**....**...........

Generation = 5, Population = 183.
.........*.................
.......**.*................
......*.*..................
......*.**.................
.....*.*............***..**
....................*...*.*
..........**.....**.*...*.*
.............*....*.......*
..........**.**.*..***....*
.**.................**.....
***...........*..**.**.....
**.....*...............**..
**......*.*.**...***....*..
**...*....*....***...*..*..
*.*...*.***....*.....*.....
**.................*..**...
..*.....**...**.......*....
.*.........**..*.*...**.*..
.........***........*.****.
..........*..*.........*.*.
...***.....................
......*.......****.......*.
................*........*.
........*....*....*.*......
...*...*......*...*....*...
.............*.........**..
........................**.
...*....................***
..*.*.................*..*.
....*.**.....*.*....*...*..
...................*.......
...**..*.....*.*........*..
..*..*.......*.*...**...*..
.*****........**...........
........*.*..*..*..........
.**......*....**...........

Generation = 6, Population = 163.
........**.................
.......**..................
......*....................
.....**.**...........*.....
......***...........**...**
....................*..**.*
.................**.......*
.............**...*..*....*
............***....*.*.....
*.*..........***.**...*....
...................****....
.............*......*..**..
..*......*.*.....**.....**.
..*....**.*...**.*..*......
..*......**....*....**.*...
*.*....*..*...*......***...
*.*.........***............
........*..****.........**.
.........*...............*.
....*....***..........**.*.
....**........***.......*..
....**.........***.........
..............*.*..........
.................*.*.......
.............**....*...**..
.......................*.*.
..........................*
...*...................*..*
....**.................*..*
...*.*.....................
...*****...................
...**..............**......
.*...**......*.**..........
.*****.......*.**..........
....*....*...*..*..........
.........*....**...........

Generation = 7, Population = 176.
.......***.................
.......***.................
.....**..*.................
.....*..**..........**.....
.....**.**..........***.***
.......*...........***..*.*
.................***......*
............*.*..****......
............*....*.****....
............*..*..*...*....
.............*....***.*....
..................*.*.****.
........***...*.****...***.
.***....*..*..**.*****..*..
..**...*..**...**...*..*...
..**.....***..**....**.*...
...............*......***..
...........*..*.........**.
........**...*.........*.**
....**...**....*.......*.*.
...*......*...*..*.....**..
....**...........*.........
..................*........
.............***..*........
..................*....**..
.......................*.*.
........................***
....*....................**
...*.*.....................
...*.......................
..*...*....................
..**...*...................
.*....*........**..........
.***..*.....**...*.........
..*.**.......*..*..........
..............**...........

Generation = 8, Population = 156.
.......*.*.................
..........*................
.....**...*................
....*.....*.........*.*..*.
.....**..*............***.*
......***.............***.*
.................*...*...*.
.............*..*..........
...........**...**....*....
............**...*....**...
.................**.*.*.*..
.........*..........*.*..*.
..*.....***...*.*..........
.*.*...**..*..*......**..*.
....*...*...*....**....**..
..**.....*.*..*.....**.....
...........*...*.....**..*.
..............*.......*...*
........**....*........*..*
....*...*.*...*.......**.**
...*.....**.....*......**..
....*............**........
..............*..**........
..............*..***.......
..............*........**..
.......................*..*
...........................
....*...................*.*
...*.......................
..***......................
..*........................
.***..**...................
.*....**........*..........
.*.**.*.....****.*.........
.**.**......**.**..........
..............**...........

Generation = 9, Population = 168.
...........................
......*..**................
.....*...***...............
....*....**..........**.**.
.....**.**................*
.....****............*....*
.......*..............****.
............*...*..........
...........*....**....**...
...........***........*....
.................***..*.*..
........***......*.*...*...
..*....*..*....*......*....
..**...*..**.*.*.*....***..
....*..*******......*..**..
...*......***.......**.**..
..........*...**....*.*....
..............**.....***.**
........**...***.......**.*
........*.*....*......*..**
...**....**......*....****.
................*.*........
................*..........
.............***.*.*.......
..................*....**..
.......................**..
.........................*.
...........................
..*........................
..*.*......................
....*......................
.*.*..**...................
**..*........****..........
**.**.**....*....*.........
.**.**......*..............
.............****..........

Generation = 10, Population = 167.
...........................
.........*.*...............
.....*..*..*...............
....*.*....*.............*.
....*.....*..........**...*
.....*...*............***.*
.......**.............****.
................**.........
...........*.*..**....**...
...........**...*....**....
.........****....*.*..*....
........***.....**.*..**...
..**...*......*...*...*.*..
..**..**.....*..*....**.*..
..*.*..**....**.....*....*.
........*.....*....**...*..
..........*..***....*....*.
.........*......*....*...**
........**...*..*....*.....
........*.*....**.....*...*
.........**.....**....*****
................*......**..
..............*.*.*........
..............*****........
..............*...*....**..
.......................*.*.
........................*..
...........................
...*.......................
...........................
..*.**.....................
******........**...........
....*........****..........
......*.....*.***..........
***.***.....*.***..........
.............***...........

Generation = 11, Population = 158.
...........................
..........*................
.....*.....**..............
....*.....**...............
....*.....*..........**.*.*
........**................*
........*.............*..*.
................**.........
...........*...*.....***...
.............*..*.*..*.....
........*...*....*..*......
........*.......**.*.**....
..**..**.*.....**.*.....*..
.*..*.*......*.*.....**.**.
..*...*.*....***...**..***.
.......***.........***..**.
.........*...***...***..***
........***..*..*...**...**
........*.*.....**...**..**
........*.*....*.....**.*.*
.........**......*....*...*
................*.....*....
..............*...*........
.............**.*.**.......
..............*.*.*....**..
.......................*.*.
........................*..
...........................
...........................
...**......................
..*..*.....................
.**..........*..*..........
.**.*......................
.*.**.*.....*....*.........
.*...**.....*..............
.*...*.......*..*..........

Generation = 12, Population = 137.
...........................
...........*...............
............*..............
....**....*.*..............
..........**.............*.
........**...........***..*
........**.................
................*....*.*...
...............*.....**....
............*...**..**.....
...................**.*....
........**.....*...***.....
..**.****.....**..*.*...**.
.*....*.*....*.....****....
.....**.**...*.*...*......*
.......*.*........*...*....
.......*.....***......*....
........*.*..*..**.*.......
.......**.**...***.....**..
........*.**.....*........*
.........**.....*.....*..*.
.................*.........
.............**...**.......
.............**...**.......
.............**...**...**..
.......................*.*.
........................*..
...........................
...........................
...**......................
.**.*......................
...........................
*...**.....................
**.**.*....................
**....*.....**.............
.....**....................

Generation = 13, Population = 128.
...........................
...........................
............*..............
..........*.*..............
..........**..........*....
........*.............*....
........**...........*.*...
.....................*.....
...............*.*.........
................*..*.......
................*.*...*....
......*.**....**..*........
..*..**.......**..*...*....
..*.*........*.*..*..*...*.
.....**..*....*...**..*....
.......*.*...*.*...........
.......*.*...******........
........*.****...**....*...
.......**...*..*...........
.......**......*.*.....***.
.........***....**.........
.................**........
.............**..*.*.......
............*..*.*..*......
.............**...**...**..
.......................*.*.
........................*..
...........................
...........................
..***......................
..*.*......................
.*.***.....................
**.***.....................
..***.*....................
***.*.**...................
.....**....................

Generation = 14, Population = 120.
...........................
...........................
...........*...............
..........*.*..............
.........***...............
........*.*..........***...
........**...........*.....
......................*....
................*..........
...............**.*........
................*.**.......
.....***......*.*.**.......
...*.***.....*..****.......
...**........*.*.**..**....
.....**.*....*.*..**.......
.......*.**..*.....*.......
.......*.*.*...*..*........
..........**......*........
............***..**....*...
.......*..**...*.*......*..
........***.............*..
..........*................
.............**..*.*.......
............*..***..*......
.............**...**...**..
.......................*.*.
........................*..
...........................
...*.......................
..*.*......................
.*.........................
**.........................
**....*....................
......**...................
.**.*..*...................
.*...***...................

Generation = 15, Population = 128.
...........................
...........................
...........*...............
.........*..*..............
......................*....
........*..*.........**....
........**...........*.*...
...........................
...............***.........
...............**.**.......
......*.........*..........
....**.*........*...*......
...*...*.....*......*......
...*........**.*....*......
....******..**..**.**......
.......*.**.*......*.......
.........*.**.....**.......
..........**.**...**.......
............***.***........
........*.*****.***....**..
........*..................
..........*................
.............***.**........
............*..***..*......
.............*******...**..
.......................*.*.
........................*..
...........................
...*.......................
..**.......................
***........................
..*........................
**....**...................
*.*..***...................
.**.....*..................
.**..***...................

Generation = 16, Population = 105.
...........................
...........................
...........................
...........................
.....................**....
........**...........*.*...
........**...........*.....
................*..........
...............*.**........
..................*........
.....**.........*..*.......
....**.*...................
...*..*.....***....***.....
...*.*..........*...**.....
....****.**...*.*.***......
.....*.*.........*.........
........**..........*......
..........*...**...........
.........*......*..........
.........*.*..*.*.*........
..........*.**...*.........
..............*............
.............***.**........
............*..............
.............**...**...**..
..............*****....*.*.
........................*..
...........................
..**.......................
...*.......................
...........................
..*........................
*.*..*.*...................
*.*..*..*..................
*..*....*..................
.**...**...................

Generation = 17, Population = 125.
...........................
...........................
...........................
...........................
.....................**....
........**..........**.....
........**............*....
................**.........
................***........
................*.**.......
....***....................
....*..*.....*.....*.......
...*..*......*.....*.*.....
...*...*......*..**........
.......**......**.****.....
....**.*..*......**.*......
........**.................
........*.*....*...........
.........*....*.**.........
.........*.***.**..........
..........******.*.........
............*..****........
.............***...........
............*..*.*.*.......
.............**.*.**...**..
.............*******...*.*.
...............***......*..
...........................
..**.......................
..**.......................
...........................
.*.........................
..**..*....................
*.***.***..................
*..*..*.*..................
.**....*...................

Generation = 18, Population = 110.
...........................
...........................
...........................
...........................
....................***....
........**..........*......
........**...........*.....
................*.*........
...............*...*.......
.....*..........*.**.......
....***...........**.......
...**..*............*......
...**.**.....**....**......
......***.....****...*.....
....*..**......**...**.....
......**........***.**.....
.......**.*................
........*.*....**..........
........**.****..*.........
.........*.................
..........*.......*........
.................**........
............**.............
............*....*.*.......
............*.......*..**..
.............*.....*...*.*.
........................*..
................*..........
..**.......................
..**.......................
..*........................
..*........................
....***....................
....*.*.*..................
*...***.*..................
.**....*...................

*** Life<ConwayCell> 35x28 ***

Generation = 0, Population = 282.
...*.*.*.....*.***..**.....*
**.*.**......**.......*....*
.**.......*.*.*...*.****.**.
...*..*...****.*...*...*....
*.....**...**.....*....*.*..
**..**....**..***...........
...**.*...*...*......*.....*
.......*..*...***.........*.
...**.*..........*..**...***
.....*.*.*..*...**.**.......
......**....*.......*...*...
...*.**...*.*..*....**..*..*
..............*..*.......*..
*......*...*......*....*..*.
...****........***...*.....*
.*.............*....**.*....
.***......*...*....**.......
....*.*......**.****..*.*..*
.....*.......*..*.**...*....
.....................***.*.*
..*.*..*......*.*...***.**.*
...*.*...*..*..*.......*....
..**..*.*.*.*.*..*..*..*.***
*..*...**.**.*.*...**..**...
*.**......**.*...*..**......
*....**......*...**....*....
........*......*....*....*..
................*.*.*..**.**
.**..***..........***..*..*.
*.*....*.**...***.*..*.*...*
...*.**.....*...*.....**....
*.**.*.....**.****.*........
.**.*.**..*..*.......*.*.**.
..........*......*..*.......
.....*.*.........*..*....*..

Generation = 1, Population = 315.
..*..*.......*.**....*......
**.*.**.....*...**.*...*...*
**.****...*....*...***.**.*.
.**...**..*...*...****.*.**.
**..*.**........*.......*...
**.**..*..*.****............
...**.*..**..*..............
......**......***...**...*..
....*****........*****...***
....**.**.......****.....**.
....*..**...**..*...........
.....***...*.*......**..**..
......*....*............***.
....***........*..*.......*.
....***........***..**......
.*...*........**...*.**.....
.***.........**.**....**....
..****.......**.*......*....
.....*.......****..***....*.
...............*.*.*.....*..
...**..........*....*....*..
.....*****.*..***...*..*...*
..**..*.*.*.*.***..**.**.**.
....*..**....*..*.**..*****.
*.***.**.***.*..**..*****...
.*..........*.*.******......
................*.*....*.**.
......**.........**.**.**.**
.**...***.......*.*.**.*.**.
..***..**......**.*.**.**...
...*.**...*.*.....*...**....
.......*...**.****.....**...
.**.***...*.****.**.*.......
.....*.*............**..***.
............................

Generation = 2, Population = 262.
.**.***........***..........
*..*..........*..***.*.**...
...*.......*...***...*.*..**
...............*..*..*.*..*.
....*...*..*.......**...**..
**.....*********............
..***.*.*****...*...........
...*.....*....*****..*...*..
....*................*..*..*
...*.....*......*........*.*
....*.......**..*.***...*.*.
.....*..*..*.*..........*.*.
....*.......*...........*.*.
....*..*.......*.*........*.
.................******.....
.*.*.**......*....*....*....
.*...*..........**...*.*....
.*...*......*.......**.*....
...*.*.......*...****.......
....*.............**.*...**.
....*****..........**...*.*.
..*..**.****.*......*.**.*..
...**.....***.....*.*......*
.*..*........*....*.......*.
.*******.***.**.............
.***......****...........*..
...............**......*.***
......*.*.......*.*.**.*...*
.**..*.........**.*.......**
.*..*...**.....**.*.*....*..
..**.**.*...***...**.*......
..**...*..*........*..***...
....**.*....*....*****.*....
....**.......**....***...*..
.........................*..

Generation = 3, Population = 243.
.*****.........***..........
.*.*.*........*.....*..**...
..............**...*.*.*.***
...............*.***.*.*..**
.......**..*.*.*...**...**..
.**.**.......***............
.****.......................
..*..*..**.*...***..........
...**...................**..
...**............*.**...**.*
....*.......**...*.*....*.**
....**.....*.*.....*...**.**
....**......*.............**
................**.***...*..
....***.........**.****.....
..*.***.........*......*....
**...*...........*..**.**...
..*..**.........*....*......
.....*...........*....*.....
...*...*.........*...*...**.
...**...*.*.......*...***.*.
........*...........*..****.
..***........*.......*....*.
.*....*..*...**....*........
*....**..*....*.............
.*...**..*...*.*........**..
..*........**..***....*..*.*
...................*..*.**..
.**..*.***........*.**....**
.*..*.****...*..*.*.*.....*.
.*...**.*....***.**..****...
..*....**..**....*.....**...
.....*.......*.........*....
....***......*.......**.*...
....................*.......

Generation = 4, Population = 236.
.*.*.*.........**...........
.*.*.*........*.....*.*****.
..............***..*.*.*.*.*
...............*.....*.*...*
............**.*...**...***.
.*..**......**.*............
............................
.*...*..........*...........
..*..*...........**.....***.
.....*.............**..*...*
............**.....*........
...*.......*.*....*....**...
....**......*.....**....*..*
......*.........**.*..*...*.
...**.*........*...*..*.....
.*.*............*.**...**...
.***............**..**.**...
.*..***.........**..**.*....
....**..........**...**.....
...*.............**..*..***.
...**..***...........**....*
..*......*...........*....**
..**.........**.....*...*.*.
.****.*......**.............
**.....****....*............
.*...**...*.**.*........***.
............*.***...........
.**.....*.......*****.****.*
.**..*...*.......**.**....**
**..*........*.**.*.*..*.***
.**..*.......***..**.**.**..
.....*.**...*...***.........
....**.*.....*..............
....***..............***....
.....*...............*......

Generation = 5, Population = 228.
...............*.......***..
..............*.....****.**.
..............*.*....*...*.*
.............*.....*.*.*...*
............**.**...*...***.
............**...........*..
....**......................
.................*.......*..
....***..........***....***.
...................**...***.
............**....***..**...
....*......*.*....*....**...
....**......*......*....**..
...*..*.........**.**..*....
..****.........*...**.*.....
.*.............**.**.*..*...
**.*.*.........*.....*......
.*....*........*..*....**...
...*..*................***..
...*.*..*.......***.*..*.**.
..***...**..........***....*
..*.*....*..........***..***
....*........**..........***
*...*..***...*.*............
*..**..******..*.........*..
**....***.*.**...........*..
.**........**.*...**........
.**.................*.****.*
...*...........*............
*..***.......*.**......*...*
***.***.....**......******..
.....*.**...*..*****........
.......**........*....*.....
.....................**.....
....***..............*......

Generation = 6, Population = 227.
.....................*.*.**.
..............*.....**.*....
.............***.......*.*.*
............**..*....**....*
....................*...***.
............***.........***.
............................
......*..........*......***.
.....*...........*.**.......
.....*...........*........*.
............**....*.*.......
....**.....*.*....*.*.......
...***......*....*.**....*..
..*...*.........*....*.**...
..****.........*......**....
**...*........***.**.**.....
**............**.****.***...
**..***...............**.*..
..*.****........*.**..*...*.
.....*.***.......*.**..*.**.
..*..*..**.......*.....**..*
..*.**..**..........*.*..*..
....**...*...**......*...*.*
....**.*...*.*.*.........*..
*..***......................
*..*..*.......*.............
.......*...**......*...*.**.
.*.*...............*...**...
.*.*..........***.....*...*.
*.....*.....**.**....*.*....
***....*....**....*******...
.*..**..*...**..*****...*...
......***........*...**.....
.....***.............**.....
.....*...............**.....

Generation = 7, Population = 203.
....................**..*...
.............***....**.*.*..
............*..*....*..**.*.
............**.*.....***...*
..............*......*.**..*
.............*..........*.*.
.............*..............
..................*......*..
.....**.........**........*.
.................*..*.......
....**......**...**.........
...*.*.....*.*...**.**......
...*..*.....*....*****..*...
..*...*.........*...**.**...
..*****.......*..*..*...*...
*..*.*..................*...
..*.*.*.......*..*..*...*...
*.***..*.......**...*....*..
.*.*.............******...*.
...*.....*......**.**.**.***
...*.*....*.......******....
......*...*..........***.*..
.........**.***......*..**..
............**............*.
...*..........*.............
...*.**.....................
..*....................*.*..
...............*......***.*.
**...........**.*.....*.*...
*...........*...**.*....*...
*.*..***...*...*........*...
***..*..*...**..*.......*...
....*...*.......**.*..**....
.....*..*...........*..*....
.....*...............**.....

Generation = 8, Population = 200.
..............*.....***.*...
.............***...*...*.*..
............*..**...*....**.
............**.*....**...***
............*.*......*..****
.............**........***..
.........................*..
.................*..........
................***.........
....*.*.....................
....**......**..*...**......
...*.**....*.*..*....*......
..*****.....*...*......**...
..*...**........*.....****..
.**...*.............**..**..
.*.....................***..
..*...*........**.......**..
....**.........**........*..
.*.............*......***..*
...*............*.......****
....*....**......**......*..
..........*..*.....*.....*..
.........**.*.*......*.****.
...........**............*..
....*........*..............
..***.......................
......................**.*..
.*............**......*.....
**...........**.**....*.*...
*.....*.....***.**......**..
*.*..***...*.*.*.*.....***..
*.****..*...*..***......*...
.*..**.***......**....***...
....**..............*..*....
.....................**.....

Generation = 9, Population = 168.
.............***....*****...
.............*..*..*..**.**.
............*...*..***.....*
...........**..**...**......
............*..*....****...*
.............**........*....
.........................*..
................***.........
................***.........
....*...........*...........
...*........**......**......
..*........*.*.***..***.....
..*.........*..***.......*..
....*..*.............**.....
.**...**.............*....*.
.*.....................*..*.
.....*.........**......*..*.
.....*........*..........**.
....*..........*.......*...*
................**.........*
.........**......**.........
.............*....*.........
.........**.*.............*.
..........***............**.
....*.......*...............
...**.......................
..**..................**....
**...........****....**.*...
**..........*....*......**..
*....***..........*.........
*.*....*...*......*....*....
*.*......*..*.**..*...*.....
.**....***.....*.*....*.*...
....***.*...............*...
.....................**.....

Generation = 10, Population = 192.
.............***....**..**..
............**..*..*.....**.
...........***..**.*......*.
...........***.**...........
...........**..**...*..*....
.............**......*.**...
.................*..........
................*.*.........
...............*..*.........
................*...........
...*........****.*..*.*.....
..**.......*.*.*.*..*.*.....
...*........*.**.*..*.......
.***..**........*....**.....
.**...**.............*......
.**...*...............*..***
...............*........*.**
....**........*.*.......****
...............**..........*
................***.........
................*.*.........
...........*.....**.........
.........**.**...........**.
.........**.**...........**.
...**.......*...............
..*.*.......................
.****.........**.....***....
*............****....**.**..
......*......*****.....***..
*.....**.........**.....*...
*......**........***........
*.**...*.**...*****...*.....
.***.***.*....***...........
.....**.**...........**.....
.....*......................

Generation = 11, Population = 166.
............****....*...***.
...........*....****....*.*.
.................**......**.
..........*.................
...........*....*.....***...
............*****.....***...
.................*..........
................*.*.........
...............**...........
.............*..**..........
..**........**.*.*..........
..***......*.....****.......
.*..*.......****.*..*.*.....
.*.*..**.......**...***.....
*....*...............*....*.
.**...**.................*.*
.....*.........*.......**...
..............*.*.......*...
.........................*.*
..................*.........
................*..*........
..........***....**.........
.........*...*...........**.
.........**..............**.
...**......***..............
.*...*................*.....
.**.*........*..*....*.**...
.***.............*...*...*..
......**.....*....*...*.....
......*.*.....**...*...***..
*........*.....*...*........
*..**....**...*....*........
.*.*.*........*......**.....
..*.....**.....*............
.....**.....................

Generation = 12, Population = 187.
............********....*.*.
............*****..*....*..*
................*..*.....**.
.................*.....***..
...........****.*.....*.*...
............******....*.*...
.............**..*.....*....
...............**...........
...............*............
............**...*..........
..*.*.......***....*........
.*..*......*...*.*.***......
.*..**......****.*....*.....
***.***......*.**...*.*.....
*....*..............***...*.
.*...**.................***.
......*........*.......***..
...............*.......***..
............................
............................
...........*.......*........
..........***....**.........
.........*..*............**.
.........***.*...........**.
....*.....***...............
.*...*.......*........**....
*...*................*.**...
.*.*.............*...*.**...
..*...**......*...*...**.*..
......*.*.....**..**...**...
........***....*..***...*...
*****....**...**....*.......
.*.*....*.*...**............
..*.***.....................
............................

Generation = 13, Population = 163.
............*....***.....*..
............*......**...*..*
.............**.***....*..*.
............**.***.....*..*.
...........*..........*.....
...........*.....*....*.*...
............*....*.....*....
...............**...........
..............**............
............*...............
...*.......*..*.*..*........
.**.*......*...*...***......
......*.....**...***..*.....
*.**..*.....**.**...*.**....
*.*.................*.**..*.
.....**..............**...*.
.....**.....................
.......................*.*..
........................*...
............................
..........***.....*.........
..........*.*.....*.........
.........*...*...........**.
.........*...*...........**.
.........*...*..............
....**.....**.........***...
***.*................*......
.***.................*...*..
..*...**......**.***.....*..
......*.*.....**.*..*.*..*..
.***...**.*.....*.*.*..**...
**.**......*....*...*.......
*.........*...**............
..****......................
.....*......................

Generation = 14, Population = 181.
..................***.......
............*...*...*...***.
..............*...**...*****
............**.*..*...**....
...........*.....*....*.....
...........**.........*.....
.................*.....*....
..............***...........
..............***...........
.............**.............
..**.......**..*...*........
..**.......*.*****...*......
.....*.....*.*.*.**...**....
..**........***.***.*.......
..**.**.............*.......
.....**..............***....
.....**...............*.....
........................*...
........................*...
...........*................
..........*.*...............
.........**.**..............
.........**.**...........**.
........***.***..........**.
..........*..*.........***..
.*.***......*.........**....
*...**...............*.**...
*.................*.*.......
.***..**......**.*****..***.
.*.*..*.**....*.....**.*.*..
**.**..***......*...*..**...
*..**....***....**.*........
*....*.........*............
...***......................
...*.*......................

Generation = 15, Population = 174.
...................**....*..
.................*..*..*...*
............*.**.***..*....*
............***..***..*..**.
...........*.*.......**.....
...........**.........**....
...............**...........
..............*..*..........
................*...........
............**..*...........
..**.......*................
..***.....**.*...*....*.....
....*......*.......*.**.....
..**.**.....*****.*..*......
..**.**......*...*.**.*.....
.......*.............***....
.....**..............**.....
.......................*....
............................
...........*................
.........**.**..............
............................
.........................**.
........*.....*.............
....*.....*...*.......**.**.
...*.*...................*..
**.*.*...............*.**...
*.*****..........**...**....
**.*..***.....**.**...*.***.
.....**..*....*.***....*..*.
**...*.*.......***.******...
*.**.*...**....***..........
.....*....*.....*...........
...*.**.....................
...*.*......................

Generation = 16, Population = 166.
...................**.......
................**..**....*.
............*.**....****...*
...........*...***.**.**..*.
...........*..*...*..*......
...........**........***....
...............**...........
.................*..........
.............*.***..........
............*...............
..*.*.....**.*..............
..*.*.....**.........**.....
..........**...****.***.....
..*...*.....*******.........
..**.*.*....**.******..*....
....*..*...............*....
......*..............*......
......................*.....
............................
..........***...............
..........***...............
............................
............................
........................*...
....*...................***.
..**.*...................**.
**.....................**...
................***..*......
**.*....*.....**...*..*.***.
..*.**........*.....*.....*.
***..*..***...*....******...
*.*..*...**.......*.****....
..**.*...**....***..........
.....**.....................
.....**.....................

Generation = 17, Population = 153.
...................***......
...............**...........
..............*...*....*..**
...........***..****...*....
..........**...*****........
...........**..*.....**.....
................*.....*.....
..............*..*..........
................**..........
...........****.*...........
..........*.................
.........*......**..*.*.....
...*......*..*....***.*.....
..**..*...............*.....
..****.*....*......*........
...***.*........*****.*.....
......................*.....
............................
...........*................
..........*.*...............
..........*.*...............
...........*................
............................
........................*...
...**...................*.*.
.****..................*..*.
.**..............*......**..
..*............****...*.....
.****.........********...**.
....**..*....**...........*.
*.*..**.*.*.............*...
*....**....*...****.....*...
.***.*...**.....**...**.....
................*...........
.....**.....................

Generation = 18, Population = 158.
....................*.......
...............*...**.......
............***...**........
..........*****.............
..........*..***...**.*.....
..........***..*..*..**.....
...............**....**.....
...............*.*..........
............*.*.**..........
...........***.***..........
..........****.***..........
.........**......**.*.......
..**.............****.**....
.....**...........*.**......
.......*.........*.***......
..*..*...........*****......
....*............***.*......
............................
...........*................
..........*.*...............
..........*.*...............
...........*................
............................
.........................*..
....*..................**...
.*..*..................*..*.
.................**....***..
..............*.....**..*.*.
.**.**.......*.....***...**.
......**.*...**.*****.....*.
.*.......*....****.......*..
*..*...*...*...*..*....*....
.**.***...*.......*.........
..*.***.........**..........
............................

Generation = 19, Population = 114.
...................**.......
.............**...*.*.......
...............*..***.......
..........*.......*.*.......
.........*.....*...**.*.....
..........****.....*...*....
...........*..**.*...**.....
..............*..*..........
...........**.*...*.........
..........*.......*.........
.........*...*.*............
.........**.*.......**......
......................*.....
......*.....................
.....*...........*....*.....
................*.....*.....
.................*...*......
..................*.........
...........*................
..........*.*...............
..........*.*...............
...........*................
............................
........................*...
.......................***..
......................*.....
......................**..*.
..................*..***..*.
.....**......*.*.*........**
.**..**.*....*.......*....*.
......**..*..*..............
*..****...*...**..*.........
.**....*........*.*.........
.**.*.*..........*..........
.....*......................

Generation = 20, Population = 113.
...................**.......
..............*...*..*......
..............*..**.**......
..................*.........
.........*..*.....*.**......
..........****.**.**...*....
..........**..***.*...*.....
...........**.*.***.........
...........*.*...**.........
..........*****.............
.........*.*................
.........**..........*......
.....................*......
............................
............................
................**...**.....
.................*..........
............................
...........*................
..........*.*...............
..........*.*...............
...........*................
............................
.......................***..
.......................***..
......................*..*..
............................
.....................*.*.**.
.....***......*......*...***
............**............**
.***.....*...*..............
.*****........**.*..........
*......*.......**.*.........
.***.**..........*..........
.....*......................

*** Life<ConwayCell> 11x38 ***

Generation = 0, Population = 141.
...*..**...**....*.....*...**....*..**
...*.*.*.*.*.*..*.**.................*
..*.*..........**.*.*.*.....*........*
...*.....*.....*.***.*.....**........*
*.******..**.***.........*..**........
*.*...*...***.*.*.*...*....*......*.*.
.*.*.*..*..*.*.....*.*.*...*..*...*.**
.*........*..*.*****...*.*..**..**..**
*..........**.*.*......**..*.***...**.
*.*..*..*****..*.**..*..*..*...*..*...
...*.**.*.....*..*......**.*..***....*

Generation = 4, Population = 112.
..****................................
..*...*.....*..**..***.....*..........
.*.*.*....**..*.**..***..*..*.........
*...*.....***..**..*.....*..*.........
*.****.....**.....**.*..*..*..........
...........*............**....*.......
.*....******..****.*...*.*....**...**.
.*.***........****.***...*......*..*.*
.........**.........**..*....*.**..***
..***..***....*.*...*...*....*.*......
...........*..*.*.............*.......

Generation = 8, Population = 82.
...***........*...*...................
......*.....****...*.**...............
.**..*.............*.**...............
*....*......*...**.***................
***..............****.*...............
**............*****...*......***...*..
...........*...........*........*.***.
.........*.......****.*......**.*....*
........**.......**..........**.*.**.*
.......*...*...**..............*...**.
........**............................

*** Life<ConwayCell> 32x14 ***

Generation = 0, Population = 143.
*.*....*......
.......****...
****......*...
*...*...***...
**..**........
........*...**
.**...*.*.**..
.*..**.......*
..*...*..*.*.*
........*.....
.**..**....**.
.....*...**.*.
..*..****....*
...*.***..*..*
..*...*...***.
...*.....*.***
*.*.**....*...
***.**....*..*
.*..**.*......
...*.*...*....
..*.*.*...*...
.....*.......*
...*.*.*..**..
..*..*......*.
***..*..*...*.
....*.*.......
.*..***....**.
..*...*..*..*.
*.....*...*.*.
.*......*...**
***.**..*....*
.*..*...*..*.*

Generation = 3, Population = 131.
......**.**...
*..*.....*.*..
*****......*..
...****.****..
**.*.*.....**.
*..*...*.*.**.
*..*.*.*...*..
***.*..*..***.
......***.....
...**...*.....
...*****......
...*.****.....
.....*.**.....
.....**.......
......**......
......*.***...
.*.......**...
*.............
*...*.........
.****.........
.....**....*..
..**......*.*.
..**.**...*..*
..*...*...*..*
..........*..*
..........*.*.
.........**.*.
..**....*.*...
.***.....*..*.
..*....*.*.*..
.*...*.*.*.*..
......*****...

*** Life<ConwayCell> 18x22 ***

Generation = 0, Population = 148.
.*....**....*.*.....**
...***.****....*...**.
*..**..*......*.....**
**.*.....*.......*.*..
....*...**..******.**.
*.........*..*...*....
.***..*..*.*.*.*...**.
.*.*..*.*..*...***...*
*...*.....*.*..*.*...*
.*.*...**...*****.*.*.
...**.*.*.*...*.....*.
...*.*..*.......**....
...*..*....*.*..**.***
.*.**.*.*.*****.**....
*..*........*.*....*..
.......**.*..*****.*..
*.....**.*.*.*.*..*.*.
.**.*.**..*..***..*...

Generation = 2, Population = 125.
...****.*.....*....**.
.***.....**...*...**.*
*....**.***...*...**..
......**...*.**.**.*.*
........*...***..*.**.
...*...*.....*.*.*..*.
......**.*.**......*..
.....***.*.**........*
*........****.........
.*...*.......*...*...*
........**...........*
..**....**...*.*****..
.......***.*.**.....*.
.....****....***......
..*............*...**.
..******...*.....***..
.....*..........***.*.
.....********.........

Generation = 4, Population = 106.
...**.........*....*..
.*....*..**..***...*..
.*.*****.*.****.*.....
.........***....***...
..........**.....**.*.
.....***....*......***
.....*.**.*...........
....**...**..**.......
......**.**..*........
.......*..*.**........
........**.*..*****.*.
.........*...****...*.
...........*...*......
.........*....**.*....
..*.*.**......***..**.
..*.**.........**.....
..**.....*.*..........
......******..........

Generation = 6, Population = 80.
.......****...*.......
........***...**......
...**..........**.**..
...**...**.....**.***.
....*..........**....*
............*.........
....**.*...*.**.....**
....**..*.**.**.......
....*..*.......**.....
.....*......*...***...
.........***..*..*....
........*..***....*...
.........*..**........
......................
...**.*...............
.**...................
.**......*............
...***.*.*............

Generation = 8, Population = 58.
..............**......
.........***..*.......
....*..........*.*....
.....*.........**.*.**
...*............***...
......*....***.....***
...*..**.**....*......
...*...*.*............
.......*.*...***......
.........*...**.**....
.........***..........
.........**...........
......................
......................
..*...................
.*.*..................
.*..*.................
..***.................

Generation = 10, Population = 62.
..............**......
.........***.*..*.....
..............*..**...
..................**..
............*..*....*.
......****...*.**.*.*.
.........*..*...***.*.
......**....*.***.....
.........**.**.**.....
........**.******.....
........**.*..........
..........*...........
......................
......................
..*...................
.*.*..................
.*..*.................
..***.................
