*** Life<ConwayCell> 38x10 ***

Generation = 0, Population = 31.
...*.*....
..*.......
....*.....
..........
..........
.......*..
..........
..........
..........
..........
......*...
.....*....
*....*....
..........
..........
..........
.........*
..*.......
..........
.*........
.*...*....
..........
*.........
..**......
......*.*.
*...*.....
.*........
.......*.*
.........*
..........
..........
........*.
.*........
........*.
..........
........*.
..........
.*...*....

*** Life<ConwayCell> 21x71 ***

Generation = 0, Population = 49.
.........................*..*.......................................*..
..................*.*..................................................
......................*.........*.......................*.......*......
.............*.....................................*...................
......................*............*...................................
.......................................................................
..........................................*...............*..*.........
..*..............................*.....................................
........*............................................................*.
..........................*.....*......................................
........................................*.............*.............*..
...........................*.......*...................*.........*.....
.......*....................*..............*...........................
............................*.........................................*
...*.......................................*..............*............
.......................................................................
...............*...................................*......*............
.......................................*........*......................
............................................*..........................
.*............*.............*..............*...........................
............................*.......................................*..

Generation = 74, Population = 0.
.......................................................................
.......................................................................
.......................................................................
.......................................................................
.......................................................................
.......................................................................
.......................................................................
.......................................................................
.......................................................................
.......................................................................
.......................................................................
.......................................................................
.......................................................................
.......................................................................
.......................................................................
.......................................................................
.......................................................................
.......................................................................
.......................................................................
.......................................................................
.......................................................................

*** Life<ConwayCell> 103x1 ***

Generation = 0, Population = 45.
*
*
.
*
*
.
.
.
.
.
.
*
.
*
.
.
.
*
*
*
.
.
*
.
.
.
.
*
.
.
*
.
.
.
*
*
.
.
.
*
*
.
.
*
.
.
*
.
*
*
.
*
*
*
.
.
*
*
*
.
.
.
*
*
.
.
.
.
.
.
.
*
*
*
.
*
*
.
.
*
*
*
.
.
*
.
.
.
.
*
.
*
.
*
.
*
*
*
.
.
.
*
*

Generation = 7, Population = 0.
.
.
.
.
.
.
.
.
.
.
.
.
.
.
.
.
.
.
.
.
.
.
.
.
.
.
.
.
.
.
.
.
.
.
.
.
.
.
.
.
.
.
.
.
.
.
.
.
.
.
.
.
.
.
.
.
.
.
.
.
.
.
.
.
.
.
.
.
.
.
.
.
.
.
.
.
.
.
.
.
.
.
.
.
.
.
.
.
.
.
.
.
.
.
.
.
.
.
.
.
.
.
.

Generation = 14, Population = 0.
.
.
.
.
.
.
.
.
.
.
.
.
.
.
.
.
.
.
.
.
.
.
.
.
.
.
.
.
.
.
.
.
.
.
.
.
.
.
.
.
.
.
.
.
.
.
.
.
.
.
.
.
.
.
.
.
.
.
.
.
.
.
.
.
.
.
.
.
.
.
.
.
.
.
.
.
.
.
.
.
.
.
.
.
.
.
.
.
.
.
.
.
.
.
.
.
.
.
.
.
.
.
.

*** Life<ConwayCell> 3x18 ***

Generation = 0, Population = 47.
.*****************
*************.**.*
.****.*******..***

Generation = 187, Population = 0.
..................
..................
..................

Generation = 374, Population = 0.
..................
..................
..................

Generation = 561, Population = 0.
..................
..................
..................

*** Life<ConwayCell> 27x45 ***

Generation = 0, Population = 122.
............*..*.......................*.....
.............*........*.*........*........*..
..............*..........*...................
...*.......*.*..............**...........*..*
..*..*..*..........*.................*.......
*.......*.........*...*......................
.........*..*..................*.......*.....
.*.*.................................*..*....
.*......................**......*.........*..
*....*....*.*...*........*................*..
...**..*.......*......................*.....*
..*....................*.*...................
.......*....*.*........*...............*...*.
*.*............**.............*......*......*
..*....................................*.....
...*...........*.............................
...............*..........*...........*......
...**....*....*...........*..................
............*............*...*.............*.
....*.................*....................*.
....*.........*..............*.............*.
.*..*.....*....*........***..............***.
..............*.............*..........*.*...
.*..................*....................*...
.........*.......*..........*...............*
.........**..........*.....*...............*.
...............*............*....**.....*....

Generation = 76, Population = 68.
.............................................
.............................................
.............................................
....*........................................
..**.**.................*....................
..*..**................*.*...................
....*..................*.*...................
...*....................*....................
...**...................................***..
..***.......................**.........*..*..
......*....................*..*........*...*.
..*..*..........**..........**.........*..*..
...***..........**......................*.*..
........................*....................
.......................*.*...................
.......................*.*...................
........................*....................
.............................................
.............................................
.............................................
.............................................
........................***..................
...................................*.........
..................................*.*........
.........**......................*..*........
.........**.......................**.........
.............................................

Generation = 152, Population = 109.
.............................................
..........***................................
..........*...*..........*.....*.............
.......*.....*...........***......*..........
......*.............**........*...**..*......
...................****......****.....*......
......*....*........*..**...***......*.......
........**............**..........**.........
.............................*.*.............
..............................*..............
.............................................
....................*........................
..................****.....**................
.............**..*...*....*..*.............*.
......**....*..*.***.......**...........*...*
......**.....**.........................*...*
........................................*...*
.....................................*....*.*
...................................*.......**
...................................*.........
....................................*......**
........................***..........*......*
...........................................*.
..................................*..........
.........**......................*......*.*..
.........**......................**....***...
.............................................

Generation = 228, Population = 38.
.........**..................................
.........**..................................
.............................................
.............................................
.............................................
.................**..........................
.................**..........................
.....................*.......................
.....................*.......................
.....................*.......................
.............................................
.............................................
...........................**................
..........................*..*...............
......**...................**................
......**.....................................
...................................***.......
.............................................
.............................................
.............................................
.............................................
........................***..................
.............................................
.............................................
.........**.............................**...
.........**............................*..*..
........................................***..

Generation = 304, Population = 38.
.........**..................................
.........**..................................
.............................................
.............................................
.............................................
.................**..........................
.................**..........................
.....................*.......................
.....................*.......................
.....................*.......................
.............................................
.............................................
...........................**................
..........................*..*...............
......**...................**................
......**.....................................
...................................***.......
.............................................
.............................................
.............................................
.............................................
........................***..................
.............................................
.............................................
.........**.............................**...
.........**............................*..*..
........................................***..

*** Life<ConwayCell> 43x187 ***

Generation = 0, Population = 54.
...............................................................................................*...........................................................................................
.....................................................................................................................................................................*.....................
......................................................................................................*....................................................................................
.................................................*.........................................................................................................................................
...........................................................................................................................................................................................
...........................................................................................................................................................................................
.....................................................................*.....................................................................................................................
...........................................................................................................................................................................................
...........................................................................................................................................................................................
.................................................................................................................................*.........................................................
...........................................................................................................................................................................................
..................................*.....................................................................................................................................*..................
..................................................................*.............................................................................................................*..........
.................................................................................................................*.........................................................................
...................................................................................................................................................................*....................*..
.................*.............*.....................................................................................................*.....................................................
...................................................................................................................*..............*......................*.................................
...........................................................................................................................*...............................................................
............................................................................................*..............................................................................................
........................................*..................................................................................................................................................
................................................*..........................................................................................................................................
.........................................................*....................................................................................*............................................
...........................................................................................................................................................................................
...........................................................................................................................................................................................
.........................................................................................................*.................................................................................
...........................................................................................................................................*...........*...................................
.*.....................................................................*...................................................................................................................
..................................................................................................................................................*................*.......................
...........................................*...............................................................................................................................................
...................................................................*.......................................................................................................................
..........................................................................*................................................................................................................
............................*..............................................................................................................................................................
...........................................................................................................................................................................................
...............*..........................................*...................................*.....*......................................................................................
...........................................................................................................................................................................................
...........................................................................................................................................................................................
.............................................................................................................................................................*................*.*..*.......
.............................................................................................................*.........*...............................................................*...
...........................................................................................................................................................................................
..............*..........................................................................................................................................*.................................
.............................................................................................*.............................................................................................
...........................................................................................................................................................................................
................................................*......................................................*.........................*...........................................*.............

Generation = 111, Population = 0.
...........................................................................................................................................................................................
...........................................................................................................................................................................................
...........................................................................................................................................................................................
...........................................................................................................................................................................................
...........................................................................................................................................................................................
...........................................................................................................................................................................................
...........................................................................................................................................................................................
...........................................................................................................................................................................................
...........................................................................................................................................................................................
...........................................................................................................................................................................................
...........................................................................................................................................................................................
...........................................................................................................................................................................................
...........................................................................................................................................................................................
...........................................................................................................................................................................................
...........................................................................................................................................................................................
...........................................................................................................................................................................................
...........................................................................................................................................................................................
...........................................................................................................................................................................................
...........................................................................................................................................................................................
...........................................................................................................................................................................................
...........................................................................................................................................................................................
...........................................................................................................................................................................................
...........................................................................................................................................................................................
...........................................................................................................................................................................................
...........................................................................................................................................................................................
...........................................................................................................................................................................................
...........................................................................................................................................................................................
...........................................................................................................................................................................................
...........................................................................................................................................................................................
...........................................................................................................................................................................................
...........................................................................................................................................................................................
...........................................................................................................................................................................................
...........................................................................................................................................................................................
...........................................................................................................................................................................................
...........................................................................................................................................................................................
...........................................................................................................................................................................................
...........................................................................................................................................................................................
...........................................................................................................................................................................................
...........................................................................................................................................................................................
...........................................................................................................................................................................................
...........................................................................................................................................................................................
...........................................................................................................................................................................................
...........................................................................................................................................................................................

Generation = 222, Population = 0.
...........................................................................................................................................................................................
...........................................................................................................................................................................................
...........................................................................................................................................................................................
...........................................................................................................................................................................................
...........................................................................................................................................................................................
...........................................................................................................................................................................................
...........................................................................................................................................................................................
...........................................................................................................................................................................................
...........................................................................................................................................................................................
...........................................................................................................................................................................................
...........................................................................................................................................................................................
...........................................................................................................................................................................................
...........................................................................................................................................................................................
...........................................................................................................................................................................................
...........................................................................................................................................................................................
...........................................................................................................................................................................................
...........................................................................................................................................................................................
...........................................................................................................................................................................................
...........................................................................................................................................................................................
...........................................................................................................................................................................................
...........................................................................................................................................................................................
...........................................................................................................................................................................................
...........................................................................................................................................................................................
...........................................................................................................................................................................................
...........................................................................................................................................................................................
...........................................................................................................................................................................................
...........................................................................................................................................................................................
...........................................................................................................................................................................................
...........................................................................................................................................................................................
...........................................................................................................................................................................................
...........................................................................................................................................................................................
...........................................................................................................................................................................................
...........................................................................................................................................................................................
...........................................................................................................................................................................................
...........................................................................................................................................................................................
...........................................................................................................................................................................................
...........................................................................................................................................................................................
...........................................................................................................................................................................................
...........................................................................................................................................................................................
...........................................................................................................................................................................................
...........................................................................................................................................................................................
...........................................................................................................................................................................................
...........................................................................................................................................................................................

Generation = 333, Population = 0.
...........................................................................................................................................................................................
...........................................................................................................................................................................................
...........................................................................................................................................................................................
...........................................................................................................................................................................................
...........................................................................................................................................................................................
...........................................................................................................................................................................................
...........................................................................................................................................................................................
...........................................................................................................................................................................................
...........................................................................................................................................................................................
...........................................................................................................................................................................................
...........................................................................................................................................................................................
...........................................................................................................................................................................................
...........................................................................................................................................................................................
...........................................................................................................................................................................................
...........................................................................................................................................................................................
...........................................................................................................................................................................................
...........................................................................................................................................................................................
...........................................................................................................................................................................................
...........................................................................................................................................................................................
...........................................................................................................................................................................................
...........................................................................................................................................................................................
...........................................................................................................................................................................................
...........................................................................................................................................................................................
...........................................................................................................................................................................................
...........................................................................................................................................................................................
...........................................................................................................................................................................................
...........................................................................................................................................................................................
...........................................................................................................................................................................................
...........................................................................................................................................................................................
...........................................................................................................................................................................................
...........................................................................................................................................................................................
...........................................................................................................................................................................................
...........................................................................................................................................................................................
...........................................................................................................................................................................................
...........................................................................................................................................................................................
...........................................................................................................................................................................................
...........................................................................................................................................................................................
...........................................................................................................................................................................................
...........................................................................................................................................................................................
...........................................................................................................................................................................................
...........................................................................................................................................................................................
...........................................................................................................................................................................................
...........................................................................................................................................................................................

Generation = 444, Population = 0.
...........................................................................................................................................................................................
...........................................................................................................................................................................................
...........................................................................................................................................................................................
...........................................................................................................................................................................................
...........................................................................................................................................................................................
...........................................................................................................................................................................................
...........................................................................................................................................................................................
...........................................................................................................................................................................................
...........................................................................................................................................................................................
...........................................................................................................................................................................................
...........................................................................................................................................................................................
...........................................................................................................................................................................................
...........................................................................................................................................................................................
...........................................................................................................................................................................................
...........................................................................................................................................................................................
...........................................................................................................................................................................................
...........................................................................................................................................................................................
...........................................................................................................................................................................................
...........................................................................................................................................................................................
...........................................................................................................................................................................................
...........................................................................................................................................................................................
...........................................................................................................................................................................................
...........................................................................................................................................................................................
...........................................................................................................................................................................................
...........................................................................................................................................................................................
...........................................................................................................................................................................................
...........................................................................................................................................................................................
...........................................................................................................................................................................................
...........................................................................................................................................................................................
...........................................................................................................................................................................................
...........................................................................................................................................................................................
...........................................................................................................................................................................................
...........................................................................................................................................................................................
...........................................................................................................................................................................................
...........................................................................................................................................................................................
...........................................................................................................................................................................................
...........................................................................................................................................................................................
...........................................................................................................................................................................................
...........................................................................................................................................................................................
...........................................................................................................................................................................................
...........................................................................................................................................................................................
...........................................................................................................................................................................................
...........................................................................................................................................................................................

Generation = 555, Population = 0.
...........................................................................................................................................................................................
...........................................................................................................................................................................................
...........................................................................................................................................................................................
...........................................................................................................................................................................................
...........................................................................................................................................................................................
...........................................................................................................................................................................................
...........................................................................................................................................................................................
...........................................................................................................................................................................................
...........................................................................................................................................................................................
...........................................................................................................................................................................................
...........................................................................................................................................................................................
...........................................................................................................................................................................................
...........................................................................................................................................................................................
...........................................................................................................................................................................................
...........................................................................................................................................................................................
...........................................................................................................................................................................................
...........................................................................................................................................................................................
...........................................................................................................................................................................................
...........................................................................................................................................................................................
...........................................................................................................................................................................................
...........................................................................................................................................................................................
...........................................................................................................................................................................................
...........................................................................................................................................................................................
...........................................................................................................................................................................................
...........................................................................................................................................................................................
...........................................................................................................................................................................................
...........................................................................................................................................................................................
...........................................................................................................................................................................................
...........................................................................................................................................................................................
...........................................................................................................................................................................................
...........................................................................................................................................................................................
...........................................................................................................................................................................................
...........................................................................................................................................................................................
...........................................................................................................................................................................................
...........................................................................................................................................................................................
...........................................................................................................................................................................................
...........................................................................................................................................................................................
...........................................................................................................................................................................................
...........................................................................................................................................................................................
...........................................................................................................................................................................................
...........................................................................................................................................................................................
...........................................................................................................................................................................................
...........................................................................................................................................................................................

*** Life<ConwayCell> 16x36 ***

Generation = 0, Population = 104.
.......*.**.*....*..**...*..*.......
.....*.**...................*.*.....
..........**.**..*......*.......*...
.......*......***..............*....
.........**..*.................*...*
.............*..**...*..............
.....*...*.....*.......*...*........
....*.*....*...*..**........*.*.....
*..*.*.......*..........*...........
*.........***.......*...*...*......*
....*....*.....*.....**....*..**....
**..**..*.............*.....*..*....
....*.*....****........*..*..**.....
....*......*....*.**...........*....
.......*.***............*..*........
............**......*.....*......*..

Generation = 90, Population = 30.
............**......................
............**......................
....................................
....................................
...........................*........
..........................*.*.......
..........**.............*..*.......
..........**..............**........
....................................
....................................
............................**......
...........................*..*.....
...........................*.*......
......**....**..............*.......
......**....**......................
....................................

Generation = 180, Population = 30.
............**......................
............**......................
....................................
....................................
...........................*........
..........................*.*.......
..........**.............*..*.......
..........**..............**........
....................................
....................................
............................**......
...........................*..*.....
...........................*.*......
......**....**..............*.......
......**....**......................
....................................

Generation = 270, Population = 30.
............**......................
............**......................
....................................
....................................
...........................*........
..........................*.*.......
..........**.............*..*.......
..........**..............**........
....................................
....................................
............................**......
...........................*..*.....
...........................*.*......
......**....**..............*.......
......**....**......................
....................................

Generation = 360, Population = 30.
............**......................
............**......................
....................................
....................................
...........................*........
..........................*.*.......
..........**.............*..*.......
..........**..............**........
....................................
....................................
............................**......
...........................*..*.....
...........................*.*......
......**....**..............*.......
......**....**......................
....................................

Generation = 450, Population = 30.
............**......................
............**......................
....................................
....................................
...........................*........
..........................*.*.......
..........**.............*..*.......
..........**..............**........
....................................
....................................
............................**......
...........................*..*.....
...........................*.*......
......**....**..............*.......
......**....**......................
....................................

Generation = 540, Population = 30.
............**......................
............**......................
....................................
....................................
...........................*........
..........................*.*.......
..........**.............*..*.......
..........**..............**........
....................................
....................................
............................**......
...........................*..*.....
...........................*.*......
......**....**..............*.......
......**....**......................
....................................

Generation = 630, Population = 30.
............**......................
............**......................
....................................
....................................
...........................*........
..........................*.*.......
..........**.............*..*.......
..........**..............**........
....................................
....................................
............................**......
...........................*..*.....
...........................*.*......
......**....**..............*.......
......**....**......................
....................................

Generation = 720, Population = 30.
............**......................
............**......................
....................................
....................................
...........................*........
..........................*.*.......
..........**.............*..*.......
..........**..............**........
....................................
....................................
............................**......
...........................*..*.....
...........................*.*......
......**....**..............*.......
......**....**......................
....................................

Generation = 810, Population = 30.
............**......................
............**......................
....................................
....................................
...........................*........
..........................*.*.......
..........**.............*..*.......
..........**..............**........
....................................
....................................
............................**......
...........................*..*.....
...........................*.*......
......**....**..............*.......
......**....**......................
....................................

Generation = 900, Population = 30.
............**......................
............**......................
....................................
....................................
...........................*........
..........................*.*.......
..........**.............*..*.......
..........**..............**........
....................................
....................................
............................**......
...........................*..*.....
...........................*.*......
......**....**..............*.......
......**....**......................
....................................

Generation = 990, Population = 30.
............**......................
............**......................
....................................
....................................
...........................*........
..........................*.*.......
..........**.............*..*.......
..........**..............**........
....................................
....................................
............................**......
...........................*..*.....
...........................*.*......
......**....**..............*.......
......**....**......................
....................................

Generation = 1080, Population = 30.
............**......................
............**......................
....................................
....................................
...........................*........
..........................*.*.......
..........**.............*..*.......
..........**..............**........
....................................
....................................
............................**......
...........................*..*.....
...........................*.*......
......**....**..............*.......
......**....**......................
....................................

Generation = 1170, Population = 30.
............**......................
............**......................
....................................
....................................
...........................*........
..........................*.*.......
..........**.............*..*.......
..........**..............**........
....................................
....................................
............................**......
...........................*..*.....
...........................*.*......
......**....**..............*.......
......**....**......................
....................................

Generation = 1260, Population = 30.
............**......................
............**......................
....................................
....................................
...........................*........
..........................*.*.......
..........**.............*..*.......
..........**..............**........
....................................
....................................
............................**......
...........................*..*.....
...........................*.*......
......**....**..............*.......
......**....**......................
....................................

Generation = 1350, Population = 30.
............**......................
............**......................
....................................
....................................
...........................*........
..........................*.*.......
..........**.............*..*.......
..........**..............**........
....................................
....................................
............................**......
...........................*..*.....
...........................*.*......
......**....**..............*.......
......**....**......................
....................................

Generation = 1440, Population = 30.
............**......................
............**......................
....................................
....................................
...........................*........
..........................*.*.......
..........**.............*..*.......
..........**..............**........
....................................
....................................
............................**......
...........................*..*.....
...........................*.*......
......**....**..............*.......
......**....**......................
....................................

Generation = 1530, Population = 30.
............**......................
............**......................
....................................
....................................
...........................*........
..........................*.*.......
..........**.............*..*.......
..........**..............**........
....................................
....................................
............................**......
...........................*..*.....
...........................*.*......
......**....**..............*.......
......**....**......................
....................................

Generation = 1620, Population = 30.
............**......................
............**......................
....................................
....................................
...........................*........
..........................*.*.......
..........**.............*..*.......
..........**..............**........
....................................
....................................
............................**......
...........................*..*.....
...........................*.*......
......**....**..............*.......
......**....**......................
....................................

Generation = 1710, Population = 30.
............**......................
............**......................
....................................
....................................
...........................*........
..........................*.*.......
..........**.............*..*.......
..........**..............**........
....................................
....................................
............................**......
...........................*..*.....
...........................*.*......
......**....**..............*.......
......**....**......................
....................................

*** Life<ConwayCell> 25x25 ***

Generation = 0, Population = 73.
.........*..****........*
.............*...........
.......*........*........
......*.........*.*...**.
..*......*.........*.*...
.***.........**..*.*....*
........*..........*...**
....*...................*
.......*......*....*....*
...*..................*..
..*...........*..........
.........*......**.......
...........*.......*.....
.....*...................
...*...*..........*.*....
...........*.........*...
...........*.........*.*.
..........*....*.........
..........*.*...*....**..
................*........
....*..*..........*......
..*.................*....
.........................
....*..*.*...............
...*............*........

Generation = 1, Population = 43.
............***..........
............**.*.........
.................*.......
.................*....*..
.***.............*.**.**.
.***...............*...**
..**..............*....**
........................*
.......................*.
.........................
.........................
.........................
.........................
...................*.....
.........................
....................***..
..........**..........*..
..........*..........*...
...........*...**........
.................*.......
.........................
.........................
.........................
.........................
.........................

Generation = 2, Population = 34.
............*.*..........
............*............
................*........
..*.............**...***.
.*.*...............****.*
....*..............**....
.*.*.....................
........................*
.........................
.........................
.........................
.........................
.........................
.........................
....................**...
.....................**..
..........**........*.*..
..........*..............
................*........
................*........
.........................
.........................
.........................
.........................
.........................

Generation = 3, Population = 25.
.............*...........
.............*...........
................**....*..
..*.............**.....*.
..**..............**.....
...**..............*.....
.........................
.........................
.........................
.........................
.........................
.........................
.........................
.........................
....................***..
......................*..
..........**..........*..
..........**.............
.........................
.........................
.........................
.........................
.........................
.........................
.........................

Generation = 4, Population = 24.
.........................
.........................
................**.......
..**............*........
..*.*............***.....
..***.............**.....
.........................
.........................
.........................
.........................
.........................
.........................
.........................
.....................*...
.....................**..
......................**.
..........**.............
..........**.............
.........................
.........................
.........................
.........................
.........................
.........................
.........................

Generation = 5, Population = 25.
.........................
.........................
................**.......
..**............*........
.*..*............*.*.....
..*.*............*.*.....
...*.....................
.........................
.........................
.........................
.........................
.........................
.........................
.....................**..
.....................*.*.
.....................***.
..........**.............
..........**.............
.........................
.........................
.........................
.........................
.........................
.........................
.........................

Generation = 6, Population = 24.
.........................
.........................
................**.......
..**............*.*......
.*..*...........**.......
..*.*....................
...*.....................
.........................
.........................
.........................
.........................
.........................
.........................
.....................**..
....................*..*.
.....................*.*.
..........**..........*..
..........**.............
.........................
.........................
.........................
.........................
.........................
.........................
.........................

Generation = 7, Population = 24.
.........................
.........................
................**.......
..**...........*..*......
.*..*...........**.......
..*.*....................
...*.....................
.........................
.........................
.........................
.........................
.........................
.........................
.....................**..
....................*..*.
.....................*.*.
..........**..........*..
..........**.............
.........................
.........................
.........................
.........................
.........................
.........................
.........................

Generation = 8, Population = 24.
.........................
.........................
................**.......
..**...........*..*......
.*..*...........**.......
..*.*....................
...*.....................
.........................
.........................
.........................
.........................
.........................
.........................
.....................**..
....................*..*.
.....................*.*.
..........**..........*..
..........**.............
.........................
.........................
.........................
.........................
.........................
.........................
.........................

Generation = 9, Population = 24.
.........................
.........................
................**.......
..**...........*..*......
.*..*...........**.......
..*.*....................
...*.....................
.........................
.........................
.........................
.........................
.........................
.........................
.....................**..
....................*..*.
.....................*.*.
..........**..........*..
..........**.............
.........................
.........................
.........................
.........................
.........................
.........................
.........................

Generation = 10, Population = 24.
.........................
.........................
................**.......
..**...........*..*......
.*..*...........**.......
..*.*....................
...*.....................
.........................
.........................
.........................
.........................
.........................
.........................
.....................**..
....................*..*.
.....................*.*.
..........**..........*..
..........**.............
.........................
.........................
.........................
.........................
.........................
.........................
.........................

*** Life<ConwayCell> 50x50 ***

Generation = 0, Population = 149.
......................................*...........
......*.....*..........*..........................
.........*.......*....*...........................
..................................................
........*........................*..........*..*..
.....................*..........................**
.............*...................*..........*...**
.*..................**.......*...*...*.*.........*
.........*...........*............................
................................*.................
.........................*........................
................................*.*...............
.....*..............................*.............
.....................*................*....*......
....................*..........................*..
.................*..............*........*..*.*..*
*...................*........*....*............*..
..............................*..........*........
.........*........................................
...............................*..................
........*......*....................*.........*...
...*.......*...............*.........*............
..............................*.*...*.............
...........*.............*.......*................
..........*..*...............................**...
..*.......*.......*..*................*...........
.....*..*.............................*.......*...
..............*.........*...........*....*..*.*...
......*...........................................
...........................................*.....*
.......................................*..........
...*..*....................*.....................*
..................................................
......*...*.......*...............................
*....*.........**............................*....
.....*.............**...........................*.
...........*.......*....*.........*..*........*...
..........*........*........*.....................
...........................*.............*.*......
....*.........................*............*......
......*......*................................**..
.........*.....*.....................*............
......*.............*.........................*...
.....................*............................
..................................*...............
.....................................*.*..........
.........*....**..................................
..........*.............*.................*.......
.............*..............*..*.*................
..........*.............*.........................

Generation = 200, Population = 115.
..................................................
..................................................
..................................................
..................................................
..................................................
..................................................
....................**............................
...................*..*...........................
....................**............................
..................................................
..................................................
..................................................
..................................................
..................................................
...............................................*..
...............................................*..
...............................................*..
..................................................
..................................................
..................................................
..................................................
..................................................
..................................................
...........**.....................................
..........*..*.................**...*.............
..........**..**..............*.....**............
...........**.***..............*....*.............
...**..........**.*............**.................
...***......**....*............**.................
...*.........*.................**.................
...*..*..........................***..............
...*...........*...***..........****..............
..*...*..........................*................
..*....*........................**................
..**.**..........................**...............
.....**..........................*.*..............
...................................**.............
.............**...................................
............*..*..................*...*...........
...........*..*..............*....*...***.........
...........*.*........**......*..**...**..........
...........***........**.............**...........
.....................................*............
..................................................
..................................................
..................................................
.....***..........................................
..................................................
..................................................
..................................................

Generation = 400, Population = 112.
..................................................
..................................................
..................................................
..................................................
..................................................
..................................................
....................**...........**...............
...................*..*.........**.**.............
....................**...........*................
..............................**.*...*............
.............................*.*....*.............
.............................*.*...*..............
..............................*...................
.........................*.*......*...*...........
........................*...*..*.*....*........*..
.........................*...*..*.....*........*..
........................*......................*..
..................**....***.......***.............
.................**.*...*...**....................
..................*.......**......................
.................***..*...........................
.................*....***.........................
......................*...........................
..................................................
...**.............................................
...**...................................**........
........................................**........
..................*.**.......**...................
................**.*..*....*..*...................
................**.*.**....*...*..................
................*..............*..................
................*............*..*.................
.................*.*..........**..................
......................*...........................
.....................*............................
......................*...........................
..................................................
..................................................
..................................................
..................................................
......................**..........................
......................**..........................
..................................................
..................................................
..................................................
....................................***...........
..................................................
..................................................
..................................................
..................................................

Generation = 600, Population = 57.
..................................................
..................................................
..................................................
..................................................
..................................................
..................................................
....................**............................
...................*..*...........................
....................**............................
......................................**..........
.....................................*..*.........
......................................*.*...**....
.......................................*....**....
..................................................
......................................*...........
.....................................*.*..........
....................................*..*.......***
.....................................**...........
..................................................
..................................................
..................................................
..................................................
...................**.............................
...................**.............................
...**............................**...............
...**...........................*..*..............
.................................**...............
..................................................
...............................................*..
..............................................*.*.
............***...............................*.*.
...............................................*..
..................................................
..................................................
..................................................
..................................................
..................................................
..................................................
..................................................
..................................................
......................**..........................
......................**..........................
..................................................
..................................................
..................................................
....................................***...........
..................................................
..................................................
..................................................
..................................................

Generation = 800, Population = 57.
..................................................
..................................................
..................................................
..................................................
..................................................
..................................................
....................**............................
...................*..*...........................
....................**............................
......................................**..........
.....................................*..*.........
......................................*.*...**....
.......................................*....**....
..................................................
......................................*...........
.....................................*.*..........
....................................*..*.......***
.....................................**...........
..................................................
..................................................
..................................................
..................................................
...................**.............................
...................**.............................
...**............................**...............
...**...........................*..*..............
.................................**...............
..................................................
...............................................*..
..............................................*.*.
............***...............................*.*.
...............................................*..
..................................................
..................................................
..................................................
..................................................
..................................................
..................................................
..................................................
..................................................
......................**..........................
......................**..........................
..................................................
..................................................
..................................................
....................................***...........
..................................................
..................................................
..................................................
..................................................

Generation = 1000, Population = 57.
..................................................
..................................................
..................................................
..................................................
..................................................
..................................................
....................**............................
...................*..*...........................
....................**............................
......................................**..........
.....................................*..*.........
......................................*.*...**....
.......................................*....**....
..................................................
......................................*...........
.....................................*.*..........
....................................*..*.......***
.....................................**...........
..................................................
..................................................
..................................................
..................................................
...................**.............................
...................**.............................
...**............................**...............
...**...........................*..*..............
.................................**...............
..................................................
...............................................*..
..............................................*.*.
............***...............................*.*.
...............................................*..
..................................................
..................................................
..................................................
..................................................
..................................................
..................................................
..................................................
..................................................
......................**..........................
......................**..........................
..................................................
..................................................
..................................................
....................................***...........
..................................................
..................................................
..................................................
..................................................

*** Life<ConwayCell> 7x7 ***

Generation = 0, Population = 28.
.......
.******
.******
.******
.******
.****..
.......

Generation = 1, Population = 13.
..****.
.*....*
*......
*......
*.....*
.*.....
..**...

*** Life<ConwayCell> 18x16 ***

Generation = 0, Population = 78.
................
.******.........
.******.........
.****...........
.....**.........
.*********......
.*******........
.....*****......
.*********......
.*********......
.***********....
.********.......
.........**.....
................
................
................
................
................

Generation = 12, Population = 17.
................
**..............
**..............
................
................
................
................
................
.......*........
......****......
.......**.*.....
.........***....
.........**.....
................
................
................
................
................

*** Life<ConwayCell> 15x15 ***

Generation = 0, Population = 87.
...............
.******........
.******........
.***...........
....***........
.*********.....
.**......*.....
.*********.....
.*********.....
.***...***.....
.***********...
.***********...
.***********...
...............
...............

Generation = 1, Population = 36.
..****.........
.*....*........
*.....*........
.*.............
........*......
.*.....***.....
*.........*....
*.........*....
*.........*....
*..............
*..........*...
*...........*..
.*.........*...
..*********....
...............

Generation = 2, Population = 63.
..****.........
.****.*........
**.............
...............
.......***.....
.......***.....
**......*.*....
**.......***...
**.............
**.............
**.............
**.........**..
.***********...
..*********....
...*******.....
